<?xml version="1.0" encoding="UTF-8" standalone="no"?>
<svg
   version="1.1"
   viewBox="0.0 0.0 423.0 262.0"
   fill="none"
   stroke="none"
   stroke-linecap="square"
   stroke-miterlimit="10"
   width="423"
   height="262"
   id="svg93"
   sodipodi:docname="Memory_per_MPI_Rank_-_OpenMPI.svg"
   inkscape:version="1.1.2 (0a00cf5339, 2022-02-04, custom)"
   xmlns:inkscape="http://www.inkscape.org/namespaces/inkscape"
   xmlns:sodipodi="http://sodipodi.sourceforge.net/DTD/sodipodi-0.dtd"
   xmlns="http://www.w3.org/2000/svg"
   xmlns:svg="http://www.w3.org/2000/svg">
  <defs
     id="defs97" />
  <sodipodi:namedview
     id="namedview95"
     pagecolor="#505050"
     bordercolor="#eeeeee"
     borderopacity="1"
     inkscape:pageshadow="0"
     inkscape:pageopacity="0"
     inkscape:pagecheckerboard="0"
     showgrid="false"
     inkscape:zoom="2.9432624"
     inkscape:cx="234.60361"
     inkscape:cy="90.545783"
     inkscape:window-width="2560"
     inkscape:window-height="1372"
     inkscape:window-x="0"
     inkscape:window-y="32"
     inkscape:window-maximized="1"
     inkscape:current-layer="svg93" />
  <path
     fill="#ffffff"
     fill-opacity="0.0"
     d="M0 0L423.0 0L423.0 262.0L0 262.0L0 0Z"
     fill-rule="nonzero"
     id="path2" />
  <path
     stroke="#cccccc"
     stroke-width="1.0"
     stroke-linecap="butt"
     d="M90.5 72.5L90.5 196.5"
     fill-rule="nonzero"
     id="path4" />
  <path
     stroke="#cccccc"
     stroke-width="1.0"
     stroke-linecap="butt"
     d="M148.5 72.5L148.5 196.5"
     fill-rule="nonzero"
     id="path6" />
  <path
     stroke="#cccccc"
     stroke-width="1.0"
     stroke-linecap="butt"
     d="M206.5 72.5L206.5 196.5"
     fill-rule="nonzero"
     id="path8" />
  <path
     stroke="#cccccc"
     stroke-width="1.0"
     stroke-linecap="butt"
     d="M264.5 72.5L264.5 196.5"
     fill-rule="nonzero"
     id="path10" />
  <path
     stroke="#cccccc"
     stroke-width="1.0"
     stroke-linecap="butt"
     d="M322.5 72.5L322.5 196.5"
     fill-rule="nonzero"
     id="path12" />
  <path
     stroke="#cccccc"
     stroke-width="1.0"
     stroke-linecap="butt"
     d="M380.5 72.5L380.5 196.5"
     fill-rule="nonzero"
     id="path14" />
  <path
     stroke="#333333"
     stroke-width="1.0"
     stroke-linecap="butt"
     d="M72.5 196.5L409.5 196.5"
     fill-rule="nonzero"
     id="path16" />
  <path
     stroke="#cccccc"
     stroke-width="1.0"
     stroke-linecap="butt"
     d="M72.5 155.5L409.5 155.5"
     fill-rule="nonzero"
     id="path18" />
  <path
     stroke="#cccccc"
     stroke-width="1.0"
     stroke-linecap="butt"
     d="M72.5 114.5L409.5 114.5"
     fill-rule="nonzero"
     id="path20" />
  <path
     stroke="#cccccc"
     stroke-width="1.0"
     stroke-linecap="butt"
     d="M72.5 72.5L409.5 72.5"
     fill-rule="nonzero"
     id="path22" />
  <clipPath
     id="id_0">
    <path
       d="M72.1 72.566666L409.9 72.566666L409.9 196.9L72.1 196.9L72.1 72.566666Z"
       clip-rule="nonzero"
       id="path24" />
  </clipPath>
  <path
     stroke="#4285f4"
     stroke-width="2.0"
     stroke-linecap="butt"
     clip-path="url(#id_0)"
     d="M78.821434 195.2588L125.158165 190.3352L217.83163 170.66566L403.17856 91.97925"
     fill-rule="nonzero"
     id="path27" />
  <path
     stroke="#fbbc04"
     stroke-width="4.0"
     stroke-linecap="butt"
     stroke-dasharray="4.0,5.0"
     clip-path="url(#id_0)"
     d="M78.821434 193.61542L125.158165 188.67459L217.83163 168.93623L403.17856 89.97446"
     fill-rule="nonzero"
     id="path29" />
  <path
     fill="#000000"
     fill-opacity="0.0"
     clip-path="url(#id_0)"
     d="M81.821434 195.2588C81.821434 196.91565 80.47829 198.2588 78.821434 198.2588C77.16458 198.2588 75.821434 196.91565 75.821434 195.2588C75.821434 193.60194 77.16458 192.2588 78.821434 192.2588C80.47829 192.2588 81.821434 193.60194 81.821434 195.2588Z"
     fill-rule="nonzero"
     id="path31" />
  <path
     fill="#000000"
     fill-opacity="0.0"
     clip-path="url(#id_0)"
     d="M128.15817 190.3352C128.15817 191.99205 126.81502 193.3352 125.158165 193.3352C123.50131 193.3352 122.158165 191.99205 122.158165 190.3352C122.158165 188.67834 123.50131 187.3352 125.158165 187.3352C126.81502 187.3352 128.15817 188.67834 128.15817 190.3352Z"
     fill-rule="nonzero"
     id="path33" />
  <path
     fill="#000000"
     fill-opacity="0.0"
     clip-path="url(#id_0)"
     d="M220.83163 170.66566C220.83163 172.32253 219.4885 173.66566 217.83163 173.66566C216.17477 173.66566 214.83163 172.32253 214.83163 170.66566C214.83163 169.00882 216.17477 167.66566 217.83163 167.66566C219.4885 167.66566 220.83163 169.00882 220.83163 170.66566Z"
     fill-rule="nonzero"
     id="path35" />
  <path
     fill="#000000"
     fill-opacity="0.0"
     clip-path="url(#id_0)"
     d="M406.17856 91.97925C406.17856 93.6361 404.83542 94.97925 403.17856 94.97925C401.5217 94.97925 400.17856 93.6361 400.17856 91.97925C400.17856 90.32239 401.5217 88.97925 403.17856 88.97925C404.83542 88.97925 406.17856 90.32239 406.17856 91.97925Z"
     fill-rule="nonzero"
     id="path37" />
  <path
     fill="#ea4335"
     clip-path="url(#id_0)"
     d="M78.821434 189.21375L83.321434 193.71375L78.821434 198.21375L74.321434 193.71375Z"
     fill-rule="nonzero"
     id="path39" />
  <path
     fill="#ea4335"
     clip-path="url(#id_0)"
     d="M125.158165 184.04716L129.65817 188.54716L125.158165 193.04716L120.658165 188.54716Z"
     fill-rule="nonzero"
     id="path41" />
  <path
     fill="#ea4335"
     clip-path="url(#id_0)"
     d="M217.83163 164.46645L222.33163 168.96645L217.83163 173.46645L213.33163 168.96645Z"
     fill-rule="nonzero"
     id="path43" />
  <path
     fill="#ea4335"
     clip-path="url(#id_0)"
     d="M403.17856 85.473335L407.67856 89.973335L403.17856 94.473335L398.67856 89.973335Z"
     fill-rule="nonzero"
     id="path45" />
  <path
     fill="#000000"
     fill-opacity="0.0"
     clip-path="url(#id_0)"
     d="M81.821434 193.61542C81.821434 195.27228 80.47829 196.61542 78.821434 196.61542C77.16458 196.61542 75.821434 195.27228 75.821434 193.61542C75.821434 191.95857 77.16458 190.61542 78.821434 190.61542C80.47829 190.61542 81.821434 191.95857 81.821434 193.61542Z"
     fill-rule="nonzero"
     id="path47" />
  <path
     fill="#000000"
     fill-opacity="0.0"
     clip-path="url(#id_0)"
     d="M128.15817 188.67459C128.15817 190.33145 126.81502 191.67459 125.158165 191.67459C123.50131 191.67459 122.158165 190.33145 122.158165 188.67459C122.158165 187.01775 123.50131 185.67459 125.158165 185.67459C126.81502 185.67459 128.15817 187.01775 128.15817 188.67459Z"
     fill-rule="nonzero"
     id="path49" />
  <path
     fill="#000000"
     fill-opacity="0.0"
     clip-path="url(#id_0)"
     d="M220.83163 168.93623C220.83163 170.59308 219.4885 171.93623 217.83163 171.93623C216.17477 171.93623 214.83163 170.59308 214.83163 168.93623C214.83163 167.27937 216.17477 165.93623 217.83163 165.93623C219.4885 165.93623 220.83163 167.27937 220.83163 168.93623Z"
     fill-rule="nonzero"
     id="path51" />
  <path
     fill="#000000"
     fill-opacity="0.0"
     clip-path="url(#id_0)"
     d="M406.17856 89.97446C406.17856 91.63131 404.83542 92.97446 403.17856 92.97446C401.5217 92.97446 400.17856 91.63131 400.17856 89.97446C400.17856 88.3176 401.5217 86.97446 403.17856 86.97446C404.83542 86.97446 406.17856 88.3176 406.17856 89.97446Z"
     fill-rule="nonzero"
     id="path53" />
  <path
     fill="#000000"
     d="M230.42188 245.9L230.42188 237.30624L231.57812 237.30624L236.09375 244.05624L236.09375 237.30624L237.1875 237.30624L237.1875 245.9L236.01562 245.9L231.5 239.15L231.5 245.9L230.42188 245.9ZM238.3125 248.29062L238.3125 247.525L245.3125 247.525L245.3125 248.29062L238.3125 248.29062ZM246.48438 245.9L246.48438 237.30624L252.28125 237.30624L252.28125 238.32187L247.625 238.32187L247.625 240.97812L251.65625 240.97812L251.65625 241.99374L247.625 241.99374L247.625 245.9L246.48438 245.9Z"
     fill-rule="nonzero"
     id="path55" />
  <path
     fill="#000000"
     d="M20.724995 146.28021L19.724995 146.28021L19.70937 142.65521L22.89687 142.65521Q23.568745 143.48334 23.912495 144.37396Q24.24062 145.26459 24.24062 146.20209Q24.24062 147.46771 23.70937 148.51459Q23.162495 149.54584 22.14687 150.07709Q21.11562 150.59271 19.849995 150.59271Q18.58437 150.59271 17.506245 150.07709Q16.412495 149.54584 15.896869 148.56146Q15.365619 147.57709 15.365619 146.29584Q15.365619 145.35834 15.662494 144.60834Q15.959369 143.85834 16.506245 143.43646Q17.037495 142.99896 17.912495 142.78021L18.193745 143.79584Q17.537495 143.99896 17.162495 144.29584Q16.787495 144.57709 16.568745 145.10834Q16.33437 145.63959 16.33437 146.28021Q16.33437 147.06146 16.568745 147.63959Q16.80312 148.20209 17.193745 148.56146Q17.58437 148.90521 18.05312 149.09271Q18.849995 149.42084 19.77187 149.42084Q20.92812 149.42084 21.70937 149.03021Q22.474995 148.62396 22.849995 147.87396Q23.224995 147.12396 23.224995 146.26459Q23.224995 145.53021 22.943745 144.82709Q22.64687 144.12396 22.33437 143.76459L20.724995 143.76459L20.724995 146.28021ZM16.724995 141.43646L15.506244 141.43646L15.506244 140.37396L16.724995 140.37396L16.724995 141.43646ZM24.099995 141.43646L17.881245 141.43646L17.881245 140.37396L24.099995 140.37396L24.099995 141.43646ZM24.099995 138.35834L15.506244 138.35834L15.506244 135.12396Q15.506244 134.13959 15.771869 133.54584Q16.037495 132.95209 16.58437 132.62396Q17.11562 132.28021 17.70937 132.28021Q18.256245 132.28021 18.74062 132.57709Q19.224995 132.87396 19.52187 133.48334Q19.756245 132.70209 20.318745 132.29584Q20.86562 131.87396 21.61562 131.87396Q22.20937 131.87396 22.74062 132.12396Q23.256245 132.37396 23.537495 132.74896Q23.818745 133.12396 23.95937 133.70209Q24.099995 134.26459 24.099995 135.07709L24.099995 138.35834ZM19.11562 137.21771L19.11562 135.35834Q19.11562 134.60834 19.02187 134.28021Q18.89687 133.84271 18.599995 133.62396Q18.287495 133.40521 17.83437 133.40521Q17.412495 133.40521 17.08437 133.60834Q16.756245 133.81146 16.64687 134.20209Q16.52187 134.57709 16.52187 135.49896L16.52187 137.21771L19.11562 137.21771ZM23.08437 137.21771L23.08437 135.07709Q23.08437 134.53021 23.037495 134.31146Q22.974995 133.90521 22.818745 133.65521Q22.64687 133.38959 22.33437 133.21771Q22.02187 133.04584 21.61562 133.04584Q21.131245 133.04584 20.77187 133.29584Q20.412495 133.53021 20.27187 133.96771Q20.131245 134.40521 20.131245 135.23334L20.131245 137.21771L23.08437 137.21771Z"
     fill-rule="nonzero"
     id="path57" />
  <path
     fill="#000000"
     d="M59.6 196.66562Q59.6 195.13437 59.9125 194.2125Q60.225 193.275 60.834373 192.775Q61.459373 192.275 62.396873 192.275Q63.084373 192.275 63.6 192.55624Q64.13125 192.8375 64.475 193.36874Q64.81875 193.88437 65.00625 194.63437Q65.19375 195.38437 65.19375 196.66562Q65.19375 198.18124 64.88125 199.10312Q64.58437 200.025 63.959373 200.54062Q63.35 201.04062 62.396873 201.04062Q61.1625 201.04062 60.44375 200.15Q59.6 199.0875 59.6 196.66562ZM60.678123 196.66562Q60.678123 198.775 61.178123 199.47812Q61.678123 200.18124 62.396873 200.18124Q63.13125 200.18124 63.615623 199.47812Q64.11562 198.775 64.11562 196.66562Q64.11562 194.54062 63.615623 193.85312Q63.13125 193.15 62.38125 193.15Q61.6625 193.15 61.225 193.75937Q60.678123 194.54062 60.678123 196.66562Z"
     fill-rule="nonzero"
     id="path59" />
  <path
     fill="#000000"
     d="M59.6 157.20555L60.709373 157.1118Q60.834373 157.9243 61.271873 158.33055Q61.725 158.7368 62.365623 158.7368Q63.115623 158.7368 63.646873 158.15868Q64.17812 157.58055 64.17812 156.64305Q64.17812 155.7368 63.6625 155.22118Q63.1625 154.68993 62.334373 154.68993Q61.834373 154.68993 61.4125 154.9243Q61.00625 155.15868 60.771873 155.51805L59.7875 155.39305L60.615623 150.9868L64.89687 150.9868L64.89687 151.9868L61.459373 151.9868L61.00625 154.2993Q61.771873 153.75243 62.615623 153.75243Q63.740623 153.75243 64.50625 154.53368Q65.2875 155.31493 65.2875 156.5493Q65.2875 157.70555 64.61562 158.56493Q63.7875 159.59618 62.365623 159.59618Q61.19375 159.59618 60.44375 158.93993Q59.709373 158.28368 59.6 157.20555Z"
     fill-rule="nonzero"
     id="path61" />
  <path
     fill="#000000"
     d="M56.56875 118.01111L55.521873 118.01111L55.521873 111.29236Q55.13125 111.65173 54.50625 112.02673Q53.896873 112.38611 53.4125 112.55798L53.4125 111.54236Q54.2875 111.12048 54.94375 110.54236Q55.615623 109.94861 55.896873 109.38611L56.56875 109.38611L56.56875 118.01111ZM59.6 113.77673Q59.6 112.24548 59.9125 111.32361Q60.225 110.38611 60.834373 109.88611Q61.459373 109.38611 62.396873 109.38611Q63.084373 109.38611 63.6 109.66736Q64.13125 109.94861 64.475 110.47986Q64.81875 110.99548 65.00625 111.74548Q65.19375 112.49548 65.19375 113.77673Q65.19375 115.29236 64.88125 116.21423Q64.58437 117.13611 63.959373 117.65173Q63.35 118.15173 62.396873 118.15173Q61.1625 118.15173 60.44375 117.26111Q59.6 116.19861 59.6 113.77673ZM60.678123 113.77673Q60.678123 115.88611 61.178123 116.58923Q61.678123 117.29236 62.396873 117.29236Q63.13125 117.29236 63.615623 116.58923Q64.11562 115.88611 64.11562 113.77673Q64.11562 111.65173 63.615623 110.96423Q63.13125 110.26111 62.38125 110.26111Q61.6625 110.26111 61.225 110.87048Q60.678123 111.65173 60.678123 113.77673Z"
     fill-rule="nonzero"
     id="path63" />
  <path
     fill="#000000"
     d="M56.56875 76.566666L55.521873 76.566666L55.521873 69.847916Q55.13125 70.20729 54.50625 70.58229Q53.896873 70.941666 53.4125 71.11354L53.4125 70.097916Q54.2875 69.67604 54.94375 69.097916Q55.615623 68.504166 55.896873 67.941666L56.56875 67.941666L56.56875 76.566666ZM59.6 74.316666L60.709373 74.222916Q60.834373 75.035416 61.271873 75.441666Q61.725 75.847916 62.365623 75.847916Q63.115623 75.847916 63.646873 75.26979Q64.17812 74.691666 64.17812 73.754166Q64.17812 72.847916 63.6625 72.33229Q63.1625 71.80104 62.334373 71.80104Q61.834373 71.80104 61.4125 72.035416Q61.00625 72.26979 60.771873 72.629166L59.7875 72.504166L60.615623 68.097916L64.89687 68.097916L64.89687 69.097916L61.459373 69.097916L61.00625 71.410416Q61.771873 70.86354 62.615623 70.86354Q63.740623 70.86354 64.50625 71.64479Q65.2875 72.42604 65.2875 73.660416Q65.2875 74.816666 64.61562 75.67604Q63.7875 76.70729 62.365623 76.70729Q61.19375 76.70729 60.44375 76.05104Q59.709373 75.39479 59.6 74.316666Z"
     fill-rule="nonzero"
     id="path65" />
  <path
     fill="#000000"
     d="M87.87437 213.9L86.82749 213.9L86.82749 207.18124Q86.43687 207.54062 85.81187 207.91562Q85.20249 208.275 84.71812 208.44687L84.71812 207.43124Q85.59312 207.00937 86.24937 206.43124Q86.92124 205.8375 87.20249 205.275L87.87437 205.275L87.87437 213.9ZM90.90562 209.66562Q90.90562 208.13437 91.21812 207.2125Q91.53062 206.275 92.13999 205.775Q92.76499 205.275 93.70249 205.275Q94.38999 205.275 94.90562 205.55624Q95.43687 205.8375 95.78062 206.36874Q96.12437 206.88437 96.31187 207.63437Q96.49937 208.38437 96.49937 209.66562Q96.49937 211.18124 96.18687 212.10312Q95.88999 213.025 95.26499 213.54062Q94.65562 214.04062 93.70249 214.04062Q92.46812 214.04062 91.74937 213.15Q90.90562 212.0875 90.90562 209.66562ZM91.98374 209.66562Q91.98374 211.775 92.48374 212.47812Q92.98374 213.18124 93.70249 213.18124Q94.43687 213.18124 94.92124 212.47812Q95.42124 211.775 95.42124 209.66562Q95.42124 207.54062 94.92124 206.85312Q94.43687 206.15 93.68687 206.15Q92.96812 206.15 92.53062 206.75937Q91.98374 207.54062 91.98374 209.66562Z"
     fill-rule="nonzero"
     id="path67" />
  <path
     fill="#000000"
     d="M147.37341 212.88437L147.37341 213.9L141.68591 213.9Q141.68591 213.525 141.81091 213.16562Q142.02966 212.5875 142.49841 212.025Q142.98279 211.4625 143.88904 210.72812Q145.29529 209.57187 145.77966 208.9Q146.27966 208.22812 146.27966 207.63437Q146.27966 207.00937 145.82654 206.5875Q145.37341 206.15 144.65466 206.15Q143.88904 206.15 143.43591 206.60312Q142.98279 207.05624 142.96716 207.86874L141.88904 207.75937Q141.99841 206.54062 142.71716 205.91562Q143.45154 205.275 144.68591 205.275Q145.92029 205.275 146.63904 205.9625Q147.35779 206.65 147.35779 207.66562Q147.35779 208.18124 147.13904 208.68124Q146.93591 209.16562 146.43591 209.72812Q145.95154 210.275 144.82654 211.22812Q143.87341 212.025 143.59216 212.32187Q143.32654 212.60312 143.15466 212.88437L147.37341 212.88437ZM148.82654 209.66562Q148.82654 208.13437 149.13904 207.2125Q149.45154 206.275 150.06091 205.775Q150.68591 205.275 151.62341 205.275Q152.31091 205.275 152.82654 205.55624Q153.35779 205.8375 153.70154 206.36874Q154.04529 206.88437 154.23279 207.63437Q154.42029 208.38437 154.42029 209.66562Q154.42029 211.18124 154.10779 212.10312Q153.81091 213.025 153.18591 213.54062Q152.57654 214.04062 151.62341 214.04062Q150.38904 214.04062 149.67029 213.15Q148.82654 212.0875 148.82654 209.66562ZM149.90466 209.66562Q149.90466 211.775 150.40466 212.47812Q150.90466 213.18124 151.62341 213.18124Q152.35779 213.18124 152.84216 212.47812Q153.34216 211.775 153.34216 209.66562Q153.34216 207.54062 152.84216 206.85312Q152.35779 206.15 151.60779 206.15Q150.88904 206.15 150.45154 206.75937Q149.90466 207.54062 149.90466 209.66562Z"
     fill-rule="nonzero"
     id="path69" />
  <path
     fill="#000000"
     d="M199.74745 211.63437L200.80995 211.49374Q200.98183 212.38437 201.41933 212.79062Q201.85683 213.18124 202.48183 213.18124Q203.23183 213.18124 203.74745 212.66562Q204.26308 212.15 204.26308 211.38437Q204.26308 210.66562 203.7787 210.19687Q203.30995 209.7125 202.57558 209.7125Q202.2787 209.7125 201.82558 209.8375L201.95058 208.9Q202.05995 208.91562 202.12245 208.91562Q202.79433 208.91562 203.32558 208.57187Q203.87245 208.2125 203.87245 207.47812Q203.87245 206.9 203.48183 206.525Q203.0912 206.13437 202.4662 206.13437Q201.85683 206.13437 201.43495 206.525Q201.0287 206.91562 200.91933 207.68124L199.85683 207.49374Q200.04433 206.44687 200.73183 205.86874Q201.41933 205.275 202.43495 205.275Q203.13808 205.275 203.73183 205.5875Q204.32558 205.88437 204.63808 206.4Q204.95058 206.91562 204.95058 207.50937Q204.95058 208.05624 204.6537 208.525Q204.35683 208.97812 203.7787 209.24374Q204.5287 209.41562 204.95058 209.97812Q205.37245 210.525 205.37245 211.36874Q205.37245 212.49374 204.54433 213.275Q203.73183 214.05624 202.48183 214.05624Q201.35683 214.05624 200.60683 213.38437Q199.85683 212.69687 199.74745 211.63437ZM206.74745 209.66562Q206.74745 208.13437 207.05995 207.2125Q207.37245 206.275 207.98183 205.775Q208.60683 205.275 209.54433 205.275Q210.23183 205.275 210.74745 205.55624Q211.2787 205.8375 211.62245 206.36874Q211.9662 206.88437 212.1537 207.63437Q212.3412 208.38437 212.3412 209.66562Q212.3412 211.18124 212.0287 212.10312Q211.73183 213.025 211.10683 213.54062Q210.49745 214.04062 209.54433 214.04062Q208.30995 214.04062 207.5912 213.15Q206.74745 212.0875 206.74745 209.66562ZM207.82558 209.66562Q207.82558 211.775 208.32558 212.47812Q208.82558 213.18124 209.54433 213.18124Q210.2787 213.18124 210.76308 212.47812Q211.26308 211.775 211.26308 209.66562Q211.26308 207.54062 210.76308 206.85312Q210.2787 206.15 209.5287 206.15Q208.80995 206.15 208.37245 206.75937Q207.82558 207.54062 207.82558 209.66562Z"
     fill-rule="nonzero"
     id="path71" />
  <path
     fill="#000000"
     d="M261.04337 213.9L261.04337 211.8375L257.32462 211.8375L257.32462 210.86874L261.2465 205.30624L262.10587 205.30624L262.10587 210.86874L263.26212 210.86874L263.26212 211.8375L262.10587 211.8375L262.10587 213.9L261.04337 213.9ZM261.04337 210.86874L261.04337 207.00937L258.35587 210.86874L261.04337 210.86874ZM264.66837 209.66562Q264.66837 208.13437 264.98087 207.2125Q265.29337 206.275 265.90274 205.775Q266.52774 205.275 267.46524 205.275Q268.15274 205.275 268.66837 205.55624Q269.19962 205.8375 269.54337 206.36874Q269.88712 206.88437 270.07462 207.63437Q270.26212 208.38437 270.26212 209.66562Q270.26212 211.18124 269.94962 212.10312Q269.65274 213.025 269.02774 213.54062Q268.41837 214.04062 267.46524 214.04062Q266.23087 214.04062 265.51212 213.15Q264.66837 212.0875 264.66837 209.66562ZM265.7465 209.66562Q265.7465 211.775 266.2465 212.47812Q266.7465 213.18124 267.46524 213.18124Q268.19962 213.18124 268.684 212.47812Q269.184 211.775 269.184 209.66562Q269.184 207.54062 268.684 206.85312Q268.19962 206.15 267.44962 206.15Q266.73087 206.15 266.29337 206.75937Q265.7465 207.54062 265.7465 209.66562Z"
     fill-rule="nonzero"
     id="path73" />
  <path
     fill="#000000"
     d="M315.5893 211.65L316.69867 211.55624Q316.82367 212.36874 317.26117 212.775Q317.7143 213.18124 318.35492 213.18124Q319.10492 213.18124 319.63617 212.60312Q320.16742 212.025 320.16742 211.0875Q320.16742 210.18124 319.6518 209.66562Q319.1518 209.13437 318.32367 209.13437Q317.82367 209.13437 317.4018 209.36874Q316.99554 209.60312 316.76117 209.9625L315.7768 209.8375L316.60492 205.43124L320.88617 205.43124L320.88617 206.43124L317.44867 206.43124L316.99554 208.74374Q317.76117 208.19687 318.60492 208.19687Q319.72992 208.19687 320.49554 208.97812Q321.2768 209.75937 321.2768 210.99374Q321.2768 212.15 320.60492 213.00937Q319.7768 214.04062 318.35492 214.04062Q317.18304 214.04062 316.43304 213.38437Q315.69867 212.72812 315.5893 211.65ZM322.5893 209.66562Q322.5893 208.13437 322.9018 207.2125Q323.2143 206.275 323.82367 205.775Q324.44867 205.275 325.38617 205.275Q326.07367 205.275 326.5893 205.55624Q327.12054 205.8375 327.4643 206.36874Q327.80804 206.88437 327.99554 207.63437Q328.18304 208.38437 328.18304 209.66562Q328.18304 211.18124 327.87054 212.10312Q327.57367 213.025 326.94867 213.54062Q326.3393 214.04062 325.38617 214.04062Q324.1518 214.04062 323.43304 213.15Q322.5893 212.0875 322.5893 209.66562ZM323.66742 209.66562Q323.66742 211.775 324.16742 212.47812Q324.66742 213.18124 325.38617 213.18124Q326.12054 213.18124 326.60492 212.47812Q327.10492 211.775 327.10492 209.66562Q327.10492 207.54062 326.60492 206.85312Q326.12054 206.15 325.37054 206.15Q324.6518 206.15 324.2143 206.75937Q323.66742 207.54062 323.66742 209.66562Z"
     fill-rule="nonzero"
     id="path75" />
  <path
     fill="#000000"
     d="M378.97894 207.41562L377.93207 207.49374Q377.79144 206.86874 377.54144 206.5875Q377.10394 206.13437 376.47894 206.13437Q375.97894 206.13437 375.58832 206.41562Q375.10394 206.79062 374.80707 207.49374Q374.52582 208.18124 374.5102 209.4625Q374.8852 208.88437 375.43207 208.60312Q375.99457 208.32187 376.60394 208.32187Q377.65082 208.32187 378.3852 209.10312Q379.1352 209.88437 379.1352 211.10312Q379.1352 211.91562 378.77582 212.61874Q378.43207 213.30624 377.8227 213.68124Q377.21332 214.04062 376.4477 214.04062Q375.11957 214.04062 374.29144 213.07187Q373.46332 212.10312 373.46332 209.88437Q373.46332 207.38437 374.3852 206.25937Q375.18207 205.275 376.54144 205.275Q377.55707 205.275 378.1977 205.85312Q378.85394 206.41562 378.97894 207.41562ZM374.68207 211.11874Q374.68207 211.66562 374.90082 212.16562Q375.1352 212.65 375.54144 212.91562Q375.96332 213.18124 376.43207 213.18124Q377.08832 213.18124 377.5727 212.65Q378.05707 212.10312 378.05707 211.18124Q378.05707 210.29062 377.5727 209.775Q377.10394 209.25937 376.3852 209.25937Q375.66644 209.25937 375.16644 209.775Q374.68207 210.29062 374.68207 211.11874ZM380.5102 209.66562Q380.5102 208.13437 380.8227 207.2125Q381.1352 206.275 381.74457 205.775Q382.36957 205.275 383.30707 205.275Q383.99457 205.275 384.5102 205.55624Q385.04144 205.8375 385.3852 206.36874Q385.72894 206.88437 385.91644 207.63437Q386.10394 208.38437 386.10394 209.66562Q386.10394 211.18124 385.79144 212.10312Q385.49457 213.025 384.86957 213.54062Q384.2602 214.04062 383.30707 214.04062Q382.0727 214.04062 381.35394 213.15Q380.5102 212.0875 380.5102 209.66562ZM381.58832 209.66562Q381.58832 211.775 382.08832 212.47812Q382.58832 213.18124 383.30707 213.18124Q384.04144 213.18124 384.52582 212.47812Q385.02582 211.775 385.02582 209.66562Q385.02582 207.54062 384.52582 206.85312Q384.04144 206.15 383.29144 206.15Q382.5727 206.15 382.1352 206.75937Q381.58832 207.54062 381.58832 209.66562Z"
     fill-rule="nonzero"
     id="path77" />
  <path
     stroke="#4285f4"
     stroke-width="4.0"
     stroke-linecap="butt"
     d="M113.0 49.833332L125.0 49.833332"
     fill-rule="nonzero"
     id="path79" />
  <path
     fill="#1a1a1a"
     d="M140.0625 50.817707L141.1875 51.114582Q140.82812 52.505207 139.90625 53.239582Q138.98438 53.973957 137.64062 53.973957Q136.25 53.973957 135.375 53.411457Q134.5 52.848957 134.04688 51.786457Q133.59375 50.708332 133.59375 49.473957Q133.59375 48.130207 134.10938 47.130207Q134.625 46.130207 135.5625 45.614582Q136.51562 45.098957 137.65625 45.098957Q138.9375 45.098957 139.8125 45.755207Q140.70312 46.411457 141.04688 47.598957L139.92188 47.864582Q139.625 46.927082 139.04688 46.505207Q138.48438 46.067707 137.625 46.067707Q136.64062 46.067707 135.96875 46.552082Q135.3125 47.020832 135.03125 47.817707Q134.76562 48.614582 134.76562 49.473957Q134.76562 50.567707 135.07812 51.380207Q135.40625 52.192707 136.07812 52.598957Q136.75 53.005207 137.54688 53.005207Q138.5 53.005207 139.15625 52.458332Q139.82812 51.911457 140.0625 50.817707ZM146.85938 53.067707Q146.26562 53.567707 145.71875 53.770832Q145.1875 53.973957 144.5625 53.973957Q143.53125 53.973957 142.98438 53.473957Q142.4375 52.973957 142.4375 52.192707Q142.4375 51.739582 142.64062 51.364582Q142.84375 50.973957 143.1875 50.755207Q143.53125 50.520832 143.95312 50.411457Q144.25 50.317707 144.89062 50.239582Q146.15625 50.098957 146.76562 49.880207Q146.76562 49.661457 146.76562 49.614582Q146.76562 48.958332 146.46875 48.692707Q146.0625 48.348957 145.26562 48.348957Q144.53125 48.348957 144.17188 48.614582Q143.8125 48.864582 143.64062 49.520832L142.60938 49.380207Q142.75 48.723957 143.07812 48.317707Q143.40625 47.911457 144.01562 47.692707Q144.625 47.473957 145.42188 47.473957Q146.21875 47.473957 146.71875 47.661457Q147.21875 47.848957 147.45312 48.130207Q147.6875 48.411457 147.78125 48.848957Q147.82812 49.114582 147.82812 49.817707L147.82812 51.223957Q147.82812 52.692707 147.89062 53.083332Q147.96875 53.473957 148.17188 53.833332L147.0625 53.833332Q146.90625 53.505207 146.85938 53.067707ZM146.76562 50.708332Q146.1875 50.942707 145.04688 51.114582Q144.39062 51.208332 144.125 51.333332Q143.85938 51.442707 143.70312 51.661457Q143.5625 51.880207 143.5625 52.161457Q143.5625 52.583332 143.875 52.864582Q144.20312 53.145832 144.8125 53.145832Q145.42188 53.145832 145.89062 52.880207Q146.375 52.614582 146.59375 52.145832Q146.76562 51.786457 146.76562 51.098957L146.76562 50.708332ZM149.76562 53.833332L149.76562 45.239582L150.82812 45.239582L150.82812 53.833332L149.76562 53.833332ZM156.85938 51.552082L157.89062 51.692707Q157.71875 52.755207 157.01562 53.364582Q156.3125 53.973957 155.29688 53.973957Q154.01562 53.973957 153.23438 53.145832Q152.46875 52.302082 152.46875 50.739582Q152.46875 49.739582 152.79688 48.989582Q153.14062 48.223957 153.8125 47.848957Q154.5 47.473957 155.3125 47.473957Q156.3125 47.473957 156.95312 47.989582Q157.60938 48.489582 157.79688 49.442707L156.76562 49.598957Q156.625 48.973957 156.25 48.661457Q155.875 48.333332 155.34375 48.333332Q154.54688 48.333332 154.04688 48.911457Q153.54688 49.473957 153.54688 50.708332Q153.54688 51.973957 154.03125 52.536457Q154.51562 53.098957 155.28125 53.098957Q155.90625 53.098957 156.3125 52.723957Q156.73438 52.348957 156.85938 51.552082Z"
     fill-rule="nonzero"
     id="path81" />
  <path
     fill="#ea4335"
     d="M180.0 43.833332L186.0 49.833332L180.0 55.833332L174.0 49.833332Z"
     fill-rule="nonzero"
     id="path83" />
  <path
     fill="#1a1a1a"
     d="M194.92188 53.833332L194.92188 45.239582L198.17188 45.239582Q199.01562 45.239582 199.46875 45.317707Q200.10938 45.427082 200.53125 45.723957Q200.96875 46.020832 201.21875 46.552082Q201.48438 47.083332 201.48438 47.723957Q201.48438 48.817707 200.78125 49.583332Q200.09375 50.333332 198.26562 50.333332L196.0625 50.333332L196.0625 53.833332L194.92188 53.833332ZM196.0625 49.333332L198.28125 49.333332Q199.39062 49.333332 199.84375 48.927082Q200.3125 48.505207 200.3125 47.755207Q200.3125 47.223957 200.03125 46.848957Q199.76562 46.458332 199.32812 46.333332Q199.03125 46.255207 198.26562 46.255207L196.0625 46.255207L196.0625 49.333332ZM202.78125 53.833332L202.78125 47.614582L203.73438 47.614582L203.73438 48.552082Q204.09375 47.895832 204.39062 47.692707Q204.70312 47.473957 205.07812 47.473957Q205.60938 47.473957 206.15625 47.802082L205.79688 48.786457Q205.40625 48.552082 205.03125 48.552082Q204.67188 48.552082 204.39062 48.770832Q204.125 48.973957 204.01562 49.348957Q203.82812 49.911457 203.82812 50.567707L203.82812 53.833332L202.78125 53.833332ZM206.40625 50.723957Q206.40625 48.989582 207.35938 48.161457Q208.15625 47.473957 209.3125 47.473957Q210.59375 47.473957 211.40625 48.317707Q212.23438 49.145832 212.23438 50.630207Q212.23438 51.833332 211.875 52.520832Q211.51562 53.208332 210.8125 53.598957Q210.125 53.973957 209.3125 53.973957Q208.01562 53.973957 207.20312 53.145832Q206.40625 52.302082 206.40625 50.723957ZM207.48438 50.723957Q207.48438 51.911457 208.0 52.505207Q208.53125 53.098957 209.3125 53.098957Q210.10938 53.098957 210.625 52.505207Q211.14062 51.911457 211.14062 50.692707Q211.14062 49.536457 210.60938 48.942707Q210.09375 48.348957 209.3125 48.348957Q208.53125 48.348957 208.0 48.942707Q207.48438 49.520832 207.48438 50.723957ZM214.04688 53.833332L214.04688 48.427082L213.10938 48.427082L213.10938 47.614582L214.04688 47.614582L214.04688 46.942707Q214.04688 46.317707 214.15625 46.020832Q214.3125 45.598957 214.6875 45.348957Q215.07812 45.098957 215.76562 45.098957Q216.21875 45.098957 216.75 45.208332L216.59375 46.114582Q216.26562 46.067707 215.96875 46.067707Q215.48438 46.067707 215.28125 46.270832Q215.09375 46.473957 215.09375 47.036457L215.09375 47.614582L216.3125 47.614582L216.3125 48.427082L215.09375 48.427082L215.09375 53.833332L214.04688 53.833332ZM216.79688 46.458332L216.79688 45.239582L217.85938 45.239582L217.85938 46.458332L216.79688 46.458332ZM216.79688 53.833332L216.79688 47.614582L217.85938 47.614582L217.85938 53.833332L216.79688 53.833332ZM219.76562 53.833332L219.76562 45.239582L220.82812 45.239582L220.82812 53.833332L219.76562 53.833332ZM227.04688 51.833332L228.14062 51.958332Q227.89062 52.911457 227.1875 53.442707Q226.48438 53.973957 225.40625 53.973957Q224.04688 53.973957 223.23438 53.130207Q222.4375 52.286457 222.4375 50.770832Q222.4375 49.208332 223.25 48.348957Q224.0625 47.473957 225.34375 47.473957Q226.59375 47.473957 227.375 48.317707Q228.17188 49.161457 228.17188 50.708332Q228.17188 50.802082 228.17188 50.989582L223.53125 50.989582Q223.59375 52.020832 224.10938 52.567707Q224.625 53.098957 225.40625 53.098957Q225.98438 53.098957 226.39062 52.802082Q226.8125 52.489582 227.04688 51.833332ZM223.59375 50.130207L227.0625 50.130207Q227.0 49.333332 226.67188 48.942707Q226.15625 48.333332 225.35938 48.333332Q224.625 48.333332 224.125 48.817707Q223.64062 49.302082 223.59375 50.130207ZM229.78125 53.833332L229.78125 47.614582L230.73438 47.614582L230.73438 48.552082Q231.09375 47.895832 231.39062 47.692707Q231.70312 47.473957 232.07812 47.473957Q232.60938 47.473957 233.15625 47.802082L232.79688 48.786457Q232.40625 48.552082 232.03125 48.552082Q231.67188 48.552082 231.39062 48.770832Q231.125 48.973957 231.01562 49.348957Q230.82812 49.911457 230.82812 50.567707L230.82812 53.833332L229.78125 53.833332Z"
     fill-rule="nonzero"
     id="path85" />
  <path
     stroke="#fbbc04"
     stroke-width="4.0"
     stroke-linecap="butt"
     stroke-dasharray="4.0,5.0"
     d="M249.0 49.833332L262.0 49.833332"
     fill-rule="nonzero"
     id="path87" />
  <path
     fill="#1a1a1a"
     d="M270.875 53.833332L270.875 45.239582L272.01562 45.239582L272.01562 52.817707L276.25 52.817707L276.25 53.833332L270.875 53.833332ZM277.89062 53.833332L277.89062 45.239582L279.60938 45.239582L281.64062 51.317707Q281.92188 52.177082 282.04688 52.598957Q282.1875 52.130207 282.5 51.223957L284.5625 45.239582L286.09375 45.239582L286.09375 53.833332L285.0 53.833332L285.0 46.645832L282.5 53.833332L281.46875 53.833332L278.98438 46.520832L278.98438 53.833332L277.89062 53.833332ZM286.54688 51.067707L287.60938 50.973957Q287.6875 51.630207 287.96875 52.036457Q288.25 52.442707 288.82812 52.708332Q289.42188 52.958332 290.15625 52.958332Q290.79688 52.958332 291.29688 52.770832Q291.79688 52.567707 292.03125 52.239582Q292.28125 51.895832 292.28125 51.505207Q292.28125 51.098957 292.04688 50.802082Q291.8125 50.489582 291.28125 50.286457Q290.92188 50.145832 289.73438 49.864582Q288.5625 49.583332 288.09375 49.333332Q287.46875 49.005207 287.17188 48.536457Q286.875 48.052082 286.875 47.458332Q286.875 46.817707 287.23438 46.255207Q287.60938 45.677082 288.3125 45.395832Q289.03125 45.098957 289.89062 45.098957Q290.84375 45.098957 291.57812 45.411457Q292.3125 45.708332 292.70312 46.317707Q293.09375 46.911457 293.125 47.661457L292.03125 47.739582Q291.9375 46.927082 291.42188 46.520832Q290.92188 46.098957 289.9375 46.098957Q288.90625 46.098957 288.4375 46.473957Q287.96875 46.848957 287.96875 47.380207Q287.96875 47.848957 288.29688 48.145832Q288.625 48.442707 290.0 48.755207Q291.39062 49.067707 291.90625 49.302082Q292.65625 49.661457 293.01562 50.192707Q293.375 50.708332 293.375 51.411457Q293.375 52.098957 292.98438 52.708332Q292.59375 53.302082 291.85938 53.645832Q291.125 53.973957 290.20312 53.973957Q289.03125 53.973957 288.23438 53.645832Q287.45312 53.302082 287.0 52.614582Q286.5625 51.927082 286.54688 51.067707ZM297.98438 53.833332L297.98438 45.239582L303.78125 45.239582L303.78125 46.255207L299.125 46.255207L299.125 48.911457L303.15625 48.911457L303.15625 49.927082L299.125 49.927082L299.125 53.833332L297.98438 53.833332ZM304.79688 46.458332L304.79688 45.239582L305.85938 45.239582L305.85938 46.458332L304.79688 46.458332ZM304.79688 53.833332L304.79688 47.614582L305.85938 47.614582L305.85938 53.833332L304.79688 53.833332ZM310.09375 52.895832L310.25 53.817707Q309.79688 53.911457 309.45312 53.911457Q308.875 53.911457 308.5625 53.739582Q308.25 53.552082 308.10938 53.255207Q307.98438 52.958332 307.98438 52.005207L307.98438 48.427082L307.21875 48.427082L307.21875 47.614582L307.98438 47.614582L307.98438 46.067707L309.03125 45.442707L309.03125 47.614582L310.09375 47.614582L310.09375 48.427082L309.03125 48.427082L309.03125 52.067707Q309.03125 52.520832 309.07812 52.645832Q309.14062 52.770832 309.26562 52.848957Q309.39062 52.927082 309.625 52.927082Q309.8125 52.927082 310.09375 52.895832Z"
     fill-rule="nonzero"
     id="path89" />
  <path
     fill="#000000"
     d="M 14.44375,30.1 V 17.209375 h 2.5625 l 3.046875,9.125 c 0.28125,0.854167 0.484375,1.489583 0.609375,1.90625 0.145833,-0.46875 0.375,-1.15625 0.6875,-2.0625 l 3.09375,-8.96875 H 26.725 V 30.1 H 25.084375 V 19.31875 L 21.35,30.1 H 19.803125 L 16.084375,19.13125 V 30.1 Z m 21.234373,-3 1.640627,0.203125 c -0.260418,0.947917 -0.739585,1.6875 -1.4375,2.21875 -0.697918,0.53125 -1.588544,0.796875 -2.671877,0.796875 -1.364582,0 -2.447915,-0.421875 -3.249998,-1.265625 -0.802083,-0.84375 -1.203125,-2.026042 -1.203125,-3.546875 0,-1.5625 0.401042,-2.776042 1.203125,-3.640625 0.8125,-0.875 1.864583,-1.3125 3.156248,-1.3125 1.25,0 2.270833,0.427083 3.0625,1.28125 0.791667,0.84375 1.1875,2.036458 1.1875,3.578125 0,0.09375 -0.0052,0.234375 -0.01562,0.421875 h -6.953125 c 0.05208,1.03125 0.338542,1.817708 0.859375,2.359375 0.531249,0.541667 1.18229,0.8125 1.953123,0.8125 0.583333,0 1.078126,-0.151042 1.484377,-0.453125 C 35.110417,28.251042 35.438541,27.766667 35.678123,27.1 Z M 30.475,24.5375 h 5.21875 C 35.620832,23.75625 35.422915,23.167708 35.1,22.771875 34.589582,22.157292 33.933332,21.85 33.13125,21.85 c -0.718751,0 -1.328126,0.244792 -1.828125,0.734375 C 30.813542,23.073958 30.5375,23.725 30.475,24.5375 Z M 39.2875,30.1 v -9.328125 h 1.421873 v 1.296875 c 0.291667,-0.447917 0.677083,-0.8125 1.15625,-1.09375 0.489585,-0.28125 1.046877,-0.421875 1.671877,-0.421875 0.6875,0 1.25,0.145833 1.6875,0.4375 0.447915,0.28125 0.760415,0.682292 0.9375,1.203125 0.739582,-1.09375 1.703123,-1.640625 2.890623,-1.640625 0.927085,0 1.635418,0.260417 2.125,0.78125 0.5,0.510417 0.75,1.296875 0.75,2.359375 V 30.1 h -1.5625 v -5.875 c 0,-0.635417 -0.05208,-1.09375 -0.15625,-1.375 -0.104167,-0.28125 -0.291667,-0.505208 -0.5625,-0.671875 -0.270833,-0.166667 -0.588541,-0.25 -0.953123,-0.25 -0.656251,0 -1.203127,0.21875 -1.640627,0.65625 -0.427082,0.4375 -0.640623,1.135417 -0.640623,2.09375 V 30.1 h -1.578127 v -6.0625 c 0,-0.708333 -0.130208,-1.234375 -0.390623,-1.578125 -0.260418,-0.354167 -0.682294,-0.53125 -1.265627,-0.53125 -0.447915,0 -0.859373,0.119792 -1.234373,0.359375 -0.375,0.229167 -0.651042,0.567708 -0.828127,1.015625 -0.166667,0.447917 -0.25,1.098958 -0.25,1.953125 V 30.1 Z m 13.40625,-4.671875 c 0,-1.729167 0.484374,-3.010417 1.453123,-3.84375 0.802085,-0.6875 1.776044,-1.03125 2.921877,-1.03125 1.291667,0 2.34375,0.421875 3.15625,1.265625 0.8125,0.84375 1.21875,2.005208 1.21875,3.484375 0,1.197917 -0.182292,2.140625 -0.546877,2.828125 -0.354167,0.6875 -0.875,1.223958 -1.5625,1.609375 -0.6875,0.385417 -1.442708,0.578125 -2.265623,0.578125 -1.302085,0 -2.359377,-0.416667 -3.171877,-1.25 C 53.094791,28.225 52.69375,27.011458 52.69375,25.428125 Z m 1.625,0 c 0,1.197917 0.260417,2.09375 0.78125,2.6875 0.520833,0.59375 1.177083,0.890625 1.96875,0.890625 0.791667,0 1.447917,-0.296875 1.96875,-0.890625 0.520833,-0.604167 0.78125,-1.515625 0.78125,-2.734375 0,-1.15625 -0.265626,-2.03125 -0.796877,-2.625 -0.520833,-0.59375 -1.171874,-0.890625 -1.953123,-0.890625 -0.791667,0 -1.447917,0.296875 -1.96875,0.890625 -0.520833,0.59375 -0.78125,1.484375 -0.78125,2.671875 z M 63.271873,30.1 v -9.328125 h 1.421877 v 1.40625 c 0.36458,-0.65625 0.697913,-1.088542 1,-1.296875 0.3125,-0.21875 0.65104,-0.328125 1.01562,-0.328125 0.541667,0 1.083333,0.171875 1.625,0.515625 l -0.53125,1.46875 c -0.395833,-0.229167 -0.786457,-0.34375 -1.17187,-0.34375 -0.343753,0 -0.656253,0.104167 -0.9375,0.3125 -0.270833,0.208333 -0.463543,0.494792 -0.57813,0.859375 -0.17708,0.5625 -0.26562,1.177083 -0.26562,1.84375 V 30.1 Z m 5.937497,3.59375 -0.17187,-1.484377 c 0.343747,0.09375 0.64583,0.140627 0.90625,0.140627 0.354167,0 0.635417,-0.05729 0.84375,-0.171877 0.208333,-0.114582 0.380207,-0.281248 0.51562,-0.499998 0.104167,-0.15625 0.265627,-0.546875 0.48438,-1.171875 0.03125,-0.09375 0.07812,-0.223958 0.14062,-0.390625 l -3.53125,-9.34375 H 70.1 l 1.9375,5.40625 c 0.25,0.677083 0.473957,1.395833 0.67187,2.15625 0.1875,-0.729167 0.40625,-1.4375 0.65625,-2.125 l 2,-5.4375 h 1.57813 l -3.54688,9.484375 c -0.385413,1.03125 -0.682287,1.739583 -0.89062,2.125 -0.281253,0.520833 -0.60417,0.901041 -0.96875,1.140623 -0.364587,0.239585 -0.79688,0.359377 -1.29688,0.359377 -0.3125,0 -0.65625,-0.0625 -1.03125,-0.1875 z M 83.2875,33.678123 V 20.771875 H 84.725 V 21.975 c 0.343747,-0.46875 0.729163,-0.822917 1.15625,-1.0625 0.42708,-0.239583 0.942703,-0.359375 1.54687,-0.359375 0.802087,0 1.505213,0.208333 2.10938,0.625 0.61458,0.40625 1.07812,0.984375 1.39062,1.734375 0.3125,0.739583 0.46875,1.557292 0.46875,2.453125 0,0.947917 -0.171873,1.807292 -0.51562,2.578125 -0.343753,0.760417 -0.843753,1.348958 -1.5,1.765625 -0.656253,0.40625 -1.343753,0.609375 -2.0625,0.609375 -0.520833,0 -0.994793,-0.109375 -1.42188,-0.328125 C 85.480203,29.761458 85.136453,29.475 84.86562,29.13125 v 4.546873 z m 1.4375,-8.187498 c 0,1.197917 0.239583,2.083333 0.71875,2.65625 0.48958,0.572917 1.07812,0.859375 1.76562,0.859375 0.708333,0 1.3125,-0.296875 1.8125,-0.890625 0.5,-0.59375 0.75,-1.515625 0.75,-2.765625 0,-1.1875 -0.24479,-2.078125 -0.73437,-2.671875 -0.489587,-0.59375 -1.07292,-0.890625 -1.75,-0.890625 -0.677087,0 -1.276047,0.317708 -1.79688,0.953125 -0.510413,0.625 -0.76562,1.541667 -0.76562,2.75 z M 99.67812,27.1 l 1.64063,0.203125 c -0.26042,0.947917 -0.73959,1.6875 -1.4375,2.21875 -0.69792,0.53125 -1.588547,0.796875 -2.67188,0.796875 -1.36458,0 -2.447913,-0.421875 -3.25,-1.265625 -0.80208,-0.84375 -1.20312,-2.026042 -1.20312,-3.546875 0,-1.5625 0.40104,-2.776042 1.20312,-3.640625 0.8125,-0.875 1.864583,-1.3125 3.15625,-1.3125 1.25,0 2.270833,0.427083 3.0625,1.28125 0.79167,0.84375 1.1875,2.036458 1.1875,3.578125 0,0.09375 -0.005,0.234375 -0.0156,0.421875 h -6.95313 c 0.05209,1.03125 0.338547,1.817708 0.85938,2.359375 0.531247,0.541667 1.182287,0.8125 1.95312,0.8125 0.583333,0 1.078127,-0.151042 1.48438,-0.453125 C 99.110417,28.251042 99.43854,27.766667 99.67812,27.1 Z M 94.475,24.5375 h 5.21875 C 99.62083,23.75625 99.422913,23.167708 99.1,22.771875 98.58958,22.157292 97.93333,21.85 97.13125,21.85 c -0.718753,0 -1.32813,0.244792 -1.82813,0.734375 C 94.81354,23.073958 94.5375,23.725 94.475,24.5375 Z m 8.79687,5.5625 v -9.328125 h 1.42188 v 1.40625 c 0.36458,-0.65625 0.69791,-1.088542 1,-1.296875 0.3125,-0.21875 0.65104,-0.328125 1.01562,-0.328125 0.54167,0 1.08333,0.171875 1.625,0.515625 l -0.53125,1.46875 c -0.39583,-0.229167 -0.78646,-0.34375 -1.17187,-0.34375 -0.34375,0 -0.65625,0.104167 -0.9375,0.3125 -0.27083,0.208333 -0.46354,0.494792 -0.57813,0.859375 -0.17708,0.5625 -0.26562,1.177083 -0.26562,1.84375 V 30.1 Z m 11.17188,0 V 17.209375 h 2.5625 l 3.04687,9.125 c 0.28125,0.854167 0.48438,1.489583 0.60938,1.90625 0.14583,-0.46875 0.375,-1.15625 0.6875,-2.0625 l 3.09375,-8.96875 H 126.725 V 30.1 h -1.64063 V 19.31875 L 121.35,30.1 h -1.54688 L 116.08437,19.13125 V 30.1 Z m 15.04688,0 V 17.209375 H 134.35 c 0.85417,0 1.50522,0.04167 1.95313,0.125 0.63542,0.104167 1.16667,0.307292 1.59375,0.609375 0.42708,0.291667 0.77083,0.708333 1.03125,1.25 0.26042,0.53125 0.39063,1.114583 0.39063,1.75 0,1.09375 -0.34896,2.020833 -1.04688,2.78125 -0.69792,0.760417 -1.95313,1.140625 -3.76562,1.140625 h -3.3125 V 30.1 Z m 1.70313,-6.765625 h 3.32812 c 1.10417,0 1.88542,-0.203125 2.34375,-0.609375 0.46875,-0.40625 0.70313,-0.984375 0.70313,-1.734375 0,-0.541667 -0.13542,-1 -0.40626,-1.375 -0.27083,-0.385417 -0.6302,-0.640625 -1.07812,-0.765625 -0.29167,-0.07292 -0.82292,-0.109375 -1.59375,-0.109375 h -3.29687 z M 141.77188,30.1 V 17.209375 h 1.71875 V 30.1 Z m 8.75,0 V 17.209375 h 5.70312 c 1.14584,0 2.01563,0.119792 2.60938,0.359375 0.60417,0.229167 1.08333,0.635417 1.4375,1.21875 0.36459,0.583333 0.54688,1.229167 0.54688,1.9375 0,0.916667 -0.29688,1.6875 -0.89063,2.3125 -0.59375,0.625 -1.50521,1.026042 -2.73437,1.203125 0.44791,0.21875 0.78645,0.432292 1.01562,0.640625 0.5,0.458333 0.97396,1.03125 1.42188,1.71875 l 2.23437,3.5 H 159.725 l -1.70312,-2.6875 c -0.5,-0.770833 -0.91146,-1.359375 -1.23438,-1.765625 -0.32291,-0.416667 -0.61458,-0.703125 -0.875,-0.859375 -0.25,-0.166667 -0.50521,-0.28125 -0.76562,-0.34375 -0.19792,-0.04167 -0.51563,-0.0625 -0.95312,-0.0625 H 152.225 V 30.1 Z m 1.70312,-7.203125 h 3.65626 c 0.78125,0 1.39062,-0.07813 1.82812,-0.234375 0.4375,-0.166667 0.77083,-0.427083 1,-0.78125 0.22917,-0.354167 0.34375,-0.739583 0.34375,-1.15625 0,-0.604167 -0.22396,-1.104167 -0.67187,-1.5 -0.43751,-0.395833 -1.13022,-0.59375 -2.07813,-0.59375 H 152.225 Z m 17.15626,6.046875 c -0.58333,0.5 -1.15104,0.854167 -1.70313,1.0625 -0.54167,0.208333 -1.11979,0.3125 -1.73437,0.3125 -1.03125,0 -1.82292,-0.25 -2.375,-0.75 -0.54167,-0.510417 -0.8125,-1.15625 -0.8125,-1.9375 0,-0.447917 0.10417,-0.859375 0.3125,-1.234375 0.20833,-0.385417 0.47917,-0.692708 0.8125,-0.921875 0.33333,-0.229167 0.71354,-0.401042 1.14062,-0.515625 0.3125,-0.08333 0.78125,-0.161458 1.40625,-0.234375 1.27083,-0.15625 2.20833,-0.338542 2.8125,-0.546875 0.0104,-0.21875 0.0156,-0.359375 0.0156,-0.421875 0,-0.635417 -0.15104,-1.088542 -0.45313,-1.359375 -0.40625,-0.354167 -1.0052,-0.53125 -1.79687,-0.53125 -0.75,0 -1.30209,0.130208 -1.65626,0.390625 -0.35416,0.260417 -0.61457,0.723958 -0.78124,1.390625 l -1.54688,-0.21875 c 0.14583,-0.666667 0.375,-1.203125 0.6875,-1.609375 0.32292,-0.40625 0.78646,-0.71875 1.39062,-0.9375 0.61459,-0.21875 1.32813,-0.328125 2.14063,-0.328125 0.79167,0 1.4375,0.09375 1.9375,0.28125 0.5,0.1875 0.86458,0.427083 1.09375,0.71875 0.23959,0.28125 0.40625,0.635417 0.5,1.0625 0.0521,0.270833 0.0781,0.760417 0.0781,1.46875 v 2.109375 c 0,1.46875 0.0312,2.401042 0.0938,2.796875 0.0729,0.385417 0.20833,0.755208 0.40624,1.109375 h -1.65624 c -0.16667,-0.333333 -0.27083,-0.71875 -0.3125,-1.15625 z m -0.14063,-3.53125 c -0.57291,0.239583 -1.43229,0.4375 -2.57813,0.59375 -0.64583,0.09375 -1.10416,0.203125 -1.375,0.328125 -0.27083,0.114583 -0.47916,0.286458 -0.625,0.515625 -0.14583,0.21875 -0.21874,0.46875 -0.21874,0.75 0,0.416667 0.15625,0.765625 0.46874,1.046875 0.32292,0.28125 0.79167,0.421875 1.40626,0.421875 0.61458,0 1.15625,-0.130208 1.625,-0.390625 0.47916,-0.270833 0.82812,-0.635417 1.04687,-1.09375 0.16667,-0.364583 0.25,-0.895833 0.25,-1.59375 z M 173.2875,30.1 v -9.328125 h 1.42188 V 22.1 c 0.6875,-1.03125 1.67708,-1.546875 2.96875,-1.546875 0.5625,0 1.07812,0.104167 1.54687,0.3125 0.47917,0.197917 0.83334,0.463542 1.0625,0.796875 0.23959,0.322917 0.40625,0.708333 0.5,1.15625 0.0521,0.291667 0.0781,0.807292 0.0781,1.546875 V 30.1 h -1.57813 v -5.671875 c 0,-0.645833 -0.0625,-1.130208 -0.1875,-1.453125 -0.11458,-0.322917 -0.33333,-0.578125 -0.65624,-0.765625 -0.31251,-0.1875 -0.67709,-0.28125 -1.09376,-0.28125 -0.67708,0 -1.26041,0.213542 -1.75,0.640625 -0.48958,0.427083 -0.73437,1.239583 -0.73437,2.4375 V 30.1 Z m 10.01563,0 V 17.209375 h 1.57813 v 7.359375 l 3.73437,-3.796875 h 2.04687 L 187.1,24.225 191.0375,30.1 h -1.95312 l -3.09375,-4.765625 -1.10937,1.0625 V 30.1 Z M 196.1,26.06875 v -1.265625 h 18 v 1.265625 z m 23.875,-2.25 c 0,-2.135417 0.57292,-3.807292 1.71876,-5.015625 1.14583,-1.208333 2.6302,-1.8125 4.45312,-1.8125 1.1875,0 2.25521,0.286458 3.20312,0.859375 0.95833,0.5625 1.6875,1.354167 2.1875,2.375 0.5,1.010417 0.75,2.161458 0.75,3.453125 0,1.302083 -0.26562,2.46875 -0.79687,3.5 -0.52083,1.03125 -1.26562,1.8125 -2.23437,2.34375 -0.96875,0.53125 -2.01042,0.796875 -3.125,0.796875 -1.20833,0 -2.29167,-0.291667 -3.25,-0.875 -0.95833,-0.583333 -1.68229,-1.380208 -2.17188,-2.390625 -0.48959,-1.020833 -0.73438,-2.098958 -0.73438,-3.234375 z m 1.75,0.03125 c 0,1.552083 0.41667,2.776042 1.25,3.671875 0.84375,0.895833 1.89063,1.34375 3.14063,1.34375 1.29167,0 2.34896,-0.453125 3.17187,-1.359375 0.83333,-0.90625 1.25,-2.1875 1.25,-3.84375 0,-1.041667 -0.17708,-1.953125 -0.53124,-2.734375 -0.35417,-0.791667 -0.87501,-1.401042 -1.5625,-1.828125 -0.67709,-0.427083 -1.44271,-0.640625 -2.29688,-0.640625 -1.20833,0 -2.25,0.416667 -3.125,1.25 C 222.15729,20.532292 221.725,21.9125 221.725,23.85 Z m 12.5625,9.828123 V 20.771875 h 1.4375 V 21.975 c 0.34375,-0.46875 0.72917,-0.822917 1.15626,-1.0625 0.42708,-0.239583 0.9427,-0.359375 1.54687,-0.359375 0.80209,0 1.50521,0.208333 2.10937,0.625 0.61459,0.40625 1.07813,0.984375 1.39063,1.734375 0.3125,0.739583 0.46875,1.557292 0.46875,2.453125 0,0.947917 -0.17187,1.807292 -0.51562,2.578125 -0.34375,0.760417 -0.84375,1.348958 -1.5,1.765625 -0.65625,0.40625 -1.34375,0.609375 -2.0625,0.609375 -0.52084,0 -0.9948,-0.109375 -1.42188,-0.328125 -0.41667,-0.229167 -0.76042,-0.515625 -1.03125,-0.859375 v 4.546873 z m 1.4375,-8.187498 c 0,1.197917 0.23959,2.083333 0.71876,2.65625 0.48958,0.572917 1.07812,0.859375 1.76562,0.859375 0.70833,0 1.3125,-0.296875 1.8125,-0.890625 0.5,-0.59375 0.75,-1.515625 0.75,-2.765625 0,-1.1875 -0.24479,-2.078125 -0.73438,-2.671875 -0.48958,-0.59375 -1.07291,-0.890625 -1.75,-0.890625 -0.67708,0 -1.27604,0.317708 -1.79687,0.953125 -0.51042,0.625 -0.76563,1.541667 -0.76563,2.75 z M 250.67813,27.1 l 1.64063,0.203125 c -0.26042,0.947917 -0.73959,1.6875 -1.4375,2.21875 -0.69792,0.53125 -1.58855,0.796875 -2.67188,0.796875 -1.36459,0 -2.44792,-0.421875 -3.25,-1.265625 -0.80208,-0.84375 -1.20312,-2.026042 -1.20312,-3.546875 0,-1.5625 0.40104,-2.776042 1.20312,-3.640625 0.8125,-0.875 1.86458,-1.3125 3.15625,-1.3125 1.25,0 2.27083,0.427083 3.0625,1.28125 0.79167,0.84375 1.1875,2.036458 1.1875,3.578125 0,0.09375 -0.005,0.234375 -0.0156,0.421875 h -6.95312 c 0.0521,1.03125 0.33854,1.817708 0.85938,2.359375 0.53125,0.541667 1.18229,0.8125 1.95312,0.8125 0.58333,0 1.07813,-0.151042 1.48438,-0.453125 0.41667,-0.302083 0.74479,-0.786458 0.98437,-1.453125 z M 245.475,24.5375 h 5.21876 C 250.62084,23.75625 250.42292,23.167708 250.1,22.771875 249.58959,22.157292 248.93334,21.85 248.13126,21.85 c -0.71875,0 -1.32813,0.244792 -1.82813,0.734375 -0.48958,0.489583 -0.76562,1.140625 -0.82813,1.953125 z m 8.8125,5.5625 v -9.328125 h 1.42188 V 22.1 c 0.6875,-1.03125 1.67708,-1.546875 2.96875,-1.546875 0.5625,0 1.07812,0.104167 1.54687,0.3125 0.47917,0.197917 0.83334,0.463542 1.0625,0.796875 0.23959,0.322917 0.40625,0.708333 0.5,1.15625 0.0521,0.291667 0.0781,0.807292 0.0781,1.546875 V 30.1 h -1.57813 v -5.671875 c 0,-0.645833 -0.0625,-1.130208 -0.1875,-1.453125 -0.11458,-0.322917 -0.33333,-0.578125 -0.65624,-0.765625 -0.31251,-0.1875 -0.67709,-0.28125 -1.09376,-0.28125 -0.67708,0 -1.26041,0.213542 -1.75,0.640625 -0.48958,0.427083 -0.73437,1.239583 -0.73437,2.4375 V 30.1 Z m 14.15626,0 V 17.209375 h 2.5625 l 3.04687,9.125 c 0.28125,0.854167 0.48437,1.489583 0.60937,1.90625 0.14584,-0.46875 0.37501,-1.15625 0.6875,-2.0625 l 3.09376,-8.96875 H 280.725 V 30.1 h -1.64062 V 19.31875 L 275.35,30.1 h -1.54687 L 270.08438,19.13125 V 30.1 Z m 15.04687,0 V 17.209375 H 288.35 c 0.85417,0 1.50522,0.04167 1.95313,0.125 0.63542,0.104167 1.16667,0.307292 1.59375,0.609375 0.42708,0.291667 0.77083,0.708333 1.03125,1.25 0.26042,0.53125 0.39063,1.114583 0.39063,1.75 0,1.09375 -0.34896,2.020833 -1.04688,2.78125 -0.69792,0.760417 -1.95313,1.140625 -3.76562,1.140625 h -3.3125 V 30.1 Z m 1.70313,-6.765625 h 3.32812 c 1.10417,0 1.88542,-0.203125 2.34375,-0.609375 0.46875,-0.40625 0.70313,-0.984375 0.70313,-1.734375 0,-0.541667 -0.13542,-1 -0.40626,-1.375 -0.27083,-0.385417 -0.6302,-0.640625 -1.07812,-0.765625 -0.29167,-0.07292 -0.82292,-0.109375 -1.59375,-0.109375 h -3.29687 z M 295.77188,30.1 V 17.209375 h 1.71875 V 30.1 Z"
     fill-rule="nonzero"
     id="path91"
     sodipodi:nodetypes="ccccccccccccccccccsssscscscccscccccscccccccsccscsccsssscsccscsccsccscssscsscsssscscssscccccsccsccsccccssccccccccccccsscccccssccsccsccccscssssscsccsssscscscccscccccscccccccsccsccsccccccccccccccccccccscccsssccccscsccscccccccccsccsscccccccccsccccscsscsccccscscscccscssccccssccssccccccccscsccscccccscccsccsccsssccccccccccccccccccccsssccscssscsscscsccscsccccssccsccsccccscssssscsccsssscscscccscccccsccccccscccsccsccsssccccccccccccccccccccscccsssccccscsccsccccccc" />
</svg>
