<?xml version="1.0" encoding="UTF-8" standalone="no"?>
<svg
   version="1.1"
   viewBox="0.0 0.0 423.0 262.0"
   fill="none"
   stroke="none"
   stroke-linecap="square"
   stroke-miterlimit="10"
   width="423"
   height="262"
   id="svg79"
   sodipodi:docname="Memory_per_MPI_Rank_-_MPI_Implementations.svg"
   inkscape:version="1.1.2 (0a00cf5339, 2022-02-04, custom)"
   xmlns:inkscape="http://www.inkscape.org/namespaces/inkscape"
   xmlns:sodipodi="http://sodipodi.sourceforge.net/DTD/sodipodi-0.dtd"
   xmlns="http://www.w3.org/2000/svg"
   xmlns:svg="http://www.w3.org/2000/svg">
  <defs
     id="defs83" />
  <sodipodi:namedview
     id="namedview81"
     pagecolor="#505050"
     bordercolor="#eeeeee"
     borderopacity="1"
     inkscape:pageshadow="0"
     inkscape:pageopacity="0"
     inkscape:pagecheckerboard="0"
     showgrid="false"
     inkscape:zoom="2.0812008"
     inkscape:cx="223.18846"
     inkscape:cy="60.301726"
     inkscape:window-width="2560"
     inkscape:window-height="1372"
     inkscape:window-x="0"
     inkscape:window-y="32"
     inkscape:window-maximized="1"
     inkscape:current-layer="svg79" />
  <path
     fill="#ffffff"
     fill-opacity="0.0"
     d="M0 0L423.0 0L423.0 262.0L0 262.0L0 0Z"
     fill-rule="nonzero"
     id="path2" />
  <path
     stroke="#cccccc"
     stroke-width="1.0"
     stroke-linecap="butt"
     d="M87.5 72.5L87.5 196.5"
     fill-rule="nonzero"
     id="path4" />
  <path
     stroke="#cccccc"
     stroke-width="1.0"
     stroke-linecap="butt"
     d="M146.5 72.5L146.5 196.5"
     fill-rule="nonzero"
     id="path6" />
  <path
     stroke="#cccccc"
     stroke-width="1.0"
     stroke-linecap="butt"
     d="M205.5 72.5L205.5 196.5"
     fill-rule="nonzero"
     id="path8" />
  <path
     stroke="#cccccc"
     stroke-width="1.0"
     stroke-linecap="butt"
     d="M264.5 72.5L264.5 196.5"
     fill-rule="nonzero"
     id="path10" />
  <path
     stroke="#cccccc"
     stroke-width="1.0"
     stroke-linecap="butt"
     d="M323.5 72.5L323.5 196.5"
     fill-rule="nonzero"
     id="path12" />
  <path
     stroke="#cccccc"
     stroke-width="1.0"
     stroke-linecap="butt"
     d="M382.5 72.5L382.5 196.5"
     fill-rule="nonzero"
     id="path14" />
  <path
     stroke="#333333"
     stroke-width="1.0"
     stroke-linecap="butt"
     d="M72.5 196.5L409.5 196.5"
     fill-rule="nonzero"
     id="path16" />
  <path
     stroke="#cccccc"
     stroke-width="1.0"
     stroke-linecap="butt"
     d="M72.5 155.5L409.5 155.5"
     fill-rule="nonzero"
     id="path18" />
  <path
     stroke="#cccccc"
     stroke-width="1.0"
     stroke-linecap="butt"
     d="M72.5 114.5L409.5 114.5"
     fill-rule="nonzero"
     id="path20" />
  <path
     stroke="#cccccc"
     stroke-width="1.0"
     stroke-linecap="butt"
     d="M72.5 72.5L409.5 72.5"
     fill-rule="nonzero"
     id="path22" />
  <clipPath
     id="id_0">
    <path
       d="M72.1 72.566666L409.9 72.566666L409.9 196.9L72.1 196.9L72.1 72.566666Z"
       clip-rule="nonzero"
       id="path24" />
  </clipPath>
  <path
     stroke="#4285f4"
     stroke-width="2.0"
     stroke-linecap="butt"
     clip-path="url(#id_0)"
     d="M123.148186 186.12445L217.42964 167.55733L405.99255 87.486664"
     fill-rule="nonzero"
     id="path27" />
  <path
     stroke="#ea4335"
     stroke-width="2.0"
     stroke-linecap="butt"
     clip-path="url(#id_0)"
     d="M76.00746 193.71375L123.148186 188.54716L217.42964 168.96645L405.99255 89.973335"
     fill-rule="nonzero"
     id="path29" />
  <path
     fill="#4285f4"
     clip-path="url(#id_0)"
     d="M123.148186 183.12445L126.148186 186.12445L123.148186 189.12445L120.148186 186.12445Z"
     fill-rule="nonzero"
     id="path31" />
  <path
     fill="#4285f4"
     clip-path="url(#id_0)"
     d="M217.42964 164.55733L220.42964 167.55733L217.42964 170.55733L214.42964 167.55733Z"
     fill-rule="nonzero"
     id="path33" />
  <path
     fill="#4285f4"
     clip-path="url(#id_0)"
     d="M405.99255 84.486664L408.99255 87.486664L405.99255 90.486664L402.99255 87.486664Z"
     fill-rule="nonzero"
     id="path35" />
  <path
     fill="#ea4335"
     clip-path="url(#id_0)"
     d="M76.00746 190.71375L79.00746 193.71375L76.00746 196.71375L73.00746 193.71375Z"
     fill-rule="nonzero"
     id="path37" />
  <path
     fill="#ea4335"
     clip-path="url(#id_0)"
     d="M123.148186 185.54716L126.148186 188.54716L123.148186 191.54716L120.148186 188.54716Z"
     fill-rule="nonzero"
     id="path39" />
  <path
     fill="#ea4335"
     clip-path="url(#id_0)"
     d="M217.42964 165.96645L220.42964 168.96645L217.42964 171.96645L214.42964 168.96645Z"
     fill-rule="nonzero"
     id="path41" />
  <path
     fill="#ea4335"
     clip-path="url(#id_0)"
     d="M405.99255 86.973335L408.99255 89.973335L405.99255 92.973335L402.99255 89.973335Z"
     fill-rule="nonzero"
     id="path43" />
  <path
     fill="#000000"
     d="M230.42188 245.9L230.42188 237.30624L231.57812 237.30624L236.09375 244.05624L236.09375 237.30624L237.1875 237.30624L237.1875 245.9L236.01562 245.9L231.5 239.15L231.5 245.9L230.42188 245.9ZM238.3125 248.29062L238.3125 247.525L245.3125 247.525L245.3125 248.29062L238.3125 248.29062ZM246.48438 245.9L246.48438 237.30624L252.28125 237.30624L252.28125 238.32187L247.625 238.32187L247.625 240.97812L251.65625 240.97812L251.65625 241.99374L247.625 241.99374L247.625 245.9L246.48438 245.9Z"
     fill-rule="nonzero"
     id="path45" />
  <path
     fill="#000000"
     d="M20.724995 146.28021L19.724995 146.28021L19.70937 142.65521L22.89687 142.65521Q23.568745 143.48334 23.912495 144.37396Q24.24062 145.26459 24.24062 146.20209Q24.24062 147.46771 23.70937 148.51459Q23.162495 149.54584 22.14687 150.07709Q21.11562 150.59271 19.849995 150.59271Q18.58437 150.59271 17.506245 150.07709Q16.412495 149.54584 15.896869 148.56146Q15.365619 147.57709 15.365619 146.29584Q15.365619 145.35834 15.662494 144.60834Q15.959369 143.85834 16.506245 143.43646Q17.037495 142.99896 17.912495 142.78021L18.193745 143.79584Q17.537495 143.99896 17.162495 144.29584Q16.787495 144.57709 16.568745 145.10834Q16.33437 145.63959 16.33437 146.28021Q16.33437 147.06146 16.568745 147.63959Q16.80312 148.20209 17.193745 148.56146Q17.58437 148.90521 18.05312 149.09271Q18.849995 149.42084 19.77187 149.42084Q20.92812 149.42084 21.70937 149.03021Q22.474995 148.62396 22.849995 147.87396Q23.224995 147.12396 23.224995 146.26459Q23.224995 145.53021 22.943745 144.82709Q22.64687 144.12396 22.33437 143.76459L20.724995 143.76459L20.724995 146.28021ZM16.724995 141.43646L15.506244 141.43646L15.506244 140.37396L16.724995 140.37396L16.724995 141.43646ZM24.099995 141.43646L17.881245 141.43646L17.881245 140.37396L24.099995 140.37396L24.099995 141.43646ZM24.099995 138.35834L15.506244 138.35834L15.506244 135.12396Q15.506244 134.13959 15.771869 133.54584Q16.037495 132.95209 16.58437 132.62396Q17.11562 132.28021 17.70937 132.28021Q18.256245 132.28021 18.74062 132.57709Q19.224995 132.87396 19.52187 133.48334Q19.756245 132.70209 20.318745 132.29584Q20.86562 131.87396 21.61562 131.87396Q22.20937 131.87396 22.74062 132.12396Q23.256245 132.37396 23.537495 132.74896Q23.818745 133.12396 23.95937 133.70209Q24.099995 134.26459 24.099995 135.07709L24.099995 138.35834ZM19.11562 137.21771L19.11562 135.35834Q19.11562 134.60834 19.02187 134.28021Q18.89687 133.84271 18.599995 133.62396Q18.287495 133.40521 17.83437 133.40521Q17.412495 133.40521 17.08437 133.60834Q16.756245 133.81146 16.64687 134.20209Q16.52187 134.57709 16.52187 135.49896L16.52187 137.21771L19.11562 137.21771ZM23.08437 137.21771L23.08437 135.07709Q23.08437 134.53021 23.037495 134.31146Q22.974995 133.90521 22.818745 133.65521Q22.64687 133.38959 22.33437 133.21771Q22.02187 133.04584 21.61562 133.04584Q21.131245 133.04584 20.77187 133.29584Q20.412495 133.53021 20.27187 133.96771Q20.131245 134.40521 20.131245 135.23334L20.131245 137.21771L23.08437 137.21771Z"
     fill-rule="nonzero"
     id="path47" />
  <path
     fill="#000000"
     d="M59.6 196.66562Q59.6 195.13437 59.9125 194.2125Q60.225 193.275 60.834373 192.775Q61.459373 192.275 62.396873 192.275Q63.084373 192.275 63.6 192.55624Q64.13125 192.8375 64.475 193.36874Q64.81875 193.88437 65.00625 194.63437Q65.19375 195.38437 65.19375 196.66562Q65.19375 198.18124 64.88125 199.10312Q64.58437 200.025 63.959373 200.54062Q63.35 201.04062 62.396873 201.04062Q61.1625 201.04062 60.44375 200.15Q59.6 199.0875 59.6 196.66562ZM60.678123 196.66562Q60.678123 198.775 61.178123 199.47812Q61.678123 200.18124 62.396873 200.18124Q63.13125 200.18124 63.615623 199.47812Q64.11562 198.775 64.11562 196.66562Q64.11562 194.54062 63.615623 193.85312Q63.13125 193.15 62.38125 193.15Q61.6625 193.15 61.225 193.75937Q60.678123 194.54062 60.678123 196.66562Z"
     fill-rule="nonzero"
     id="path49" />
  <path
     fill="#000000"
     d="M59.6 157.20555L60.709373 157.1118Q60.834373 157.9243 61.271873 158.33055Q61.725 158.7368 62.365623 158.7368Q63.115623 158.7368 63.646873 158.15868Q64.17812 157.58055 64.17812 156.64305Q64.17812 155.7368 63.6625 155.22118Q63.1625 154.68993 62.334373 154.68993Q61.834373 154.68993 61.4125 154.9243Q61.00625 155.15868 60.771873 155.51805L59.7875 155.39305L60.615623 150.9868L64.89687 150.9868L64.89687 151.9868L61.459373 151.9868L61.00625 154.2993Q61.771873 153.75243 62.615623 153.75243Q63.740623 153.75243 64.50625 154.53368Q65.2875 155.31493 65.2875 156.5493Q65.2875 157.70555 64.61562 158.56493Q63.7875 159.59618 62.365623 159.59618Q61.19375 159.59618 60.44375 158.93993Q59.709373 158.28368 59.6 157.20555Z"
     fill-rule="nonzero"
     id="path51" />
  <path
     fill="#000000"
     d="M56.56875 118.01111L55.521873 118.01111L55.521873 111.29236Q55.13125 111.65173 54.50625 112.02673Q53.896873 112.38611 53.4125 112.55798L53.4125 111.54236Q54.2875 111.12048 54.94375 110.54236Q55.615623 109.94861 55.896873 109.38611L56.56875 109.38611L56.56875 118.01111ZM59.6 113.77673Q59.6 112.24548 59.9125 111.32361Q60.225 110.38611 60.834373 109.88611Q61.459373 109.38611 62.396873 109.38611Q63.084373 109.38611 63.6 109.66736Q64.13125 109.94861 64.475 110.47986Q64.81875 110.99548 65.00625 111.74548Q65.19375 112.49548 65.19375 113.77673Q65.19375 115.29236 64.88125 116.21423Q64.58437 117.13611 63.959373 117.65173Q63.35 118.15173 62.396873 118.15173Q61.1625 118.15173 60.44375 117.26111Q59.6 116.19861 59.6 113.77673ZM60.678123 113.77673Q60.678123 115.88611 61.178123 116.58923Q61.678123 117.29236 62.396873 117.29236Q63.13125 117.29236 63.615623 116.58923Q64.11562 115.88611 64.11562 113.77673Q64.11562 111.65173 63.615623 110.96423Q63.13125 110.26111 62.38125 110.26111Q61.6625 110.26111 61.225 110.87048Q60.678123 111.65173 60.678123 113.77673Z"
     fill-rule="nonzero"
     id="path53" />
  <path
     fill="#000000"
     d="M56.56875 76.566666L55.521873 76.566666L55.521873 69.847916Q55.13125 70.20729 54.50625 70.58229Q53.896873 70.941666 53.4125 71.11354L53.4125 70.097916Q54.2875 69.67604 54.94375 69.097916Q55.615623 68.504166 55.896873 67.941666L56.56875 67.941666L56.56875 76.566666ZM59.6 74.316666L60.709373 74.222916Q60.834373 75.035416 61.271873 75.441666Q61.725 75.847916 62.365623 75.847916Q63.115623 75.847916 63.646873 75.26979Q64.17812 74.691666 64.17812 73.754166Q64.17812 72.847916 63.6625 72.33229Q63.1625 71.80104 62.334373 71.80104Q61.834373 71.80104 61.4125 72.035416Q61.00625 72.26979 60.771873 72.629166L59.7875 72.504166L60.615623 68.097916L64.89687 68.097916L64.89687 69.097916L61.459373 69.097916L61.00625 71.410416Q61.771873 70.86354 62.615623 70.86354Q63.740623 70.86354 64.50625 71.64479Q65.2875 72.42604 65.2875 73.660416Q65.2875 74.816666 64.61562 75.67604Q63.7875 76.70729 62.365623 76.70729Q61.19375 76.70729 60.44375 76.05104Q59.709373 75.39479 59.6 74.316666Z"
     fill-rule="nonzero"
     id="path55" />
  <path
     fill="#000000"
     d="M85.26139 213.9L84.214516 213.9L84.214516 207.18124Q83.82389 207.54062 83.19889 207.91562Q82.589516 208.275 82.10514 208.44687L82.10514 207.43124Q82.98014 207.00937 83.63639 206.43124Q84.308266 205.8375 84.589516 205.275L85.26139 205.275L85.26139 213.9ZM88.29264 209.66562Q88.29264 208.13437 88.60514 207.2125Q88.91764 206.275 89.527016 205.775Q90.152016 205.275 91.089516 205.275Q91.777016 205.275 92.29264 205.55624Q92.82389 205.8375 93.16764 206.36874Q93.51139 206.88437 93.69889 207.63437Q93.88639 208.38437 93.88639 209.66562Q93.88639 211.18124 93.57389 212.10312Q93.277016 213.025 92.652016 213.54062Q92.04264 214.04062 91.089516 214.04062Q89.85514 214.04062 89.13639 213.15Q88.29264 212.0875 88.29264 209.66562ZM89.370766 209.66562Q89.370766 211.775 89.870766 212.47812Q90.370766 213.18124 91.089516 213.18124Q91.82389 213.18124 92.308266 212.47812Q92.808266 211.775 92.808266 209.66562Q92.808266 207.54062 92.308266 206.85312Q91.82389 206.15 91.07389 206.15Q90.35514 206.15 89.91764 206.75937Q89.370766 207.54062 89.370766 209.66562Z"
     fill-rule="nonzero"
     id="path57" />
  <path
     fill="#000000"
     d="M145.76543 212.88437L145.76543 213.9L140.07793 213.9Q140.07793 213.525 140.20293 213.16562Q140.42168 212.5875 140.89043 212.025Q141.3748 211.4625 142.28105 210.72812Q143.6873 209.57187 144.17168 208.9Q144.67168 208.22812 144.67168 207.63437Q144.67168 207.00937 144.21855 206.5875Q143.76543 206.15 143.04668 206.15Q142.28105 206.15 141.82793 206.60312Q141.3748 207.05624 141.35918 207.86874L140.28105 207.75937Q140.39043 206.54062 141.10918 205.91562Q141.84355 205.275 143.07793 205.275Q144.3123 205.275 145.03105 205.9625Q145.7498 206.65 145.7498 207.66562Q145.7498 208.18124 145.53105 208.68124Q145.32793 209.16562 144.82793 209.72812Q144.34355 210.275 143.21855 211.22812Q142.26543 212.025 141.98418 212.32187Q141.71855 212.60312 141.54668 212.88437L145.76543 212.88437ZM147.21855 209.66562Q147.21855 208.13437 147.53105 207.2125Q147.84355 206.275 148.45293 205.775Q149.07793 205.275 150.01543 205.275Q150.70293 205.275 151.21855 205.55624Q151.7498 205.8375 152.09355 206.36874Q152.4373 206.88437 152.6248 207.63437Q152.8123 208.38437 152.8123 209.66562Q152.8123 211.18124 152.4998 212.10312Q152.20293 213.025 151.57793 213.54062Q150.96855 214.04062 150.01543 214.04062Q148.78105 214.04062 148.0623 213.15Q147.21855 212.0875 147.21855 209.66562ZM148.29668 209.66562Q148.29668 211.775 148.79668 212.47812Q149.29668 213.18124 150.01543 213.18124Q150.7498 213.18124 151.23418 212.47812Q151.73418 211.775 151.73418 209.66562Q151.73418 207.54062 151.23418 206.85312Q150.7498 206.15 149.9998 206.15Q149.28105 206.15 148.84355 206.75937Q148.29668 207.54062 148.29668 209.66562Z"
     fill-rule="nonzero"
     id="path59" />
  <path
     fill="#000000"
     d="M199.14445 211.63437L200.20695 211.49374Q200.37883 212.38437 200.81633 212.79062Q201.25383 213.18124 201.87883 213.18124Q202.62883 213.18124 203.14445 212.66562Q203.66008 212.15 203.66008 211.38437Q203.66008 210.66562 203.1757 210.19687Q202.70695 209.7125 201.97258 209.7125Q201.6757 209.7125 201.22258 209.8375L201.34758 208.9Q201.45695 208.91562 201.51945 208.91562Q202.19133 208.91562 202.72258 208.57187Q203.26945 208.2125 203.26945 207.47812Q203.26945 206.9 202.87883 206.525Q202.4882 206.13437 201.8632 206.13437Q201.25383 206.13437 200.83195 206.525Q200.4257 206.91562 200.31633 207.68124L199.25383 207.49374Q199.44133 206.44687 200.12883 205.86874Q200.81633 205.275 201.83195 205.275Q202.53508 205.275 203.12883 205.5875Q203.72258 205.88437 204.03508 206.4Q204.34758 206.91562 204.34758 207.50937Q204.34758 208.05624 204.0507 208.525Q203.75383 208.97812 203.1757 209.24374Q203.9257 209.41562 204.34758 209.97812Q204.76945 210.525 204.76945 211.36874Q204.76945 212.49374 203.94133 213.275Q203.12883 214.05624 201.87883 214.05624Q200.75383 214.05624 200.00383 213.38437Q199.25383 212.69687 199.14445 211.63437ZM206.14445 209.66562Q206.14445 208.13437 206.45695 207.2125Q206.76945 206.275 207.37883 205.775Q208.00383 205.275 208.94133 205.275Q209.62883 205.275 210.14445 205.55624Q210.6757 205.8375 211.01945 206.36874Q211.3632 206.88437 211.5507 207.63437Q211.7382 208.38437 211.7382 209.66562Q211.7382 211.18124 211.4257 212.10312Q211.12883 213.025 210.50383 213.54062Q209.89445 214.04062 208.94133 214.04062Q207.70695 214.04062 206.9882 213.15Q206.14445 212.0875 206.14445 209.66562ZM207.22258 209.66562Q207.22258 211.775 207.72258 212.47812Q208.22258 213.18124 208.94133 213.18124Q209.6757 213.18124 210.16008 212.47812Q210.66008 211.775 210.66008 209.66562Q210.66008 207.54062 210.16008 206.85312Q209.6757 206.15 208.9257 206.15Q208.20695 206.15 207.76945 206.75937Q207.22258 207.54062 207.22258 209.66562Z"
     fill-rule="nonzero"
     id="path61" />
  <path
     fill="#000000"
     d="M261.44537 213.9L261.44537 211.8375L257.72662 211.8375L257.72662 210.86874L261.6485 205.30624L262.50787 205.30624L262.50787 210.86874L263.66412 210.86874L263.66412 211.8375L262.50787 211.8375L262.50787 213.9L261.44537 213.9ZM261.44537 210.86874L261.44537 207.00937L258.75787 210.86874L261.44537 210.86874ZM265.07037 209.66562Q265.07037 208.13437 265.38287 207.2125Q265.69537 206.275 266.30475 205.775Q266.92975 205.275 267.86725 205.275Q268.55475 205.275 269.07037 205.55624Q269.60162 205.8375 269.94537 206.36874Q270.28912 206.88437 270.47662 207.63437Q270.66412 208.38437 270.66412 209.66562Q270.66412 211.18124 270.35162 212.10312Q270.05475 213.025 269.42975 213.54062Q268.82037 214.04062 267.86725 214.04062Q266.63287 214.04062 265.91412 213.15Q265.07037 212.0875 265.07037 209.66562ZM266.1485 209.66562Q266.1485 211.775 266.6485 212.47812Q267.1485 213.18124 267.86725 213.18124Q268.60162 213.18124 269.086 212.47812Q269.586 211.775 269.586 209.66562Q269.586 207.54062 269.086 206.85312Q268.60162 206.15 267.85162 206.15Q267.13287 206.15 266.69537 206.75937Q266.1485 207.54062 266.1485 209.66562Z"
     fill-rule="nonzero"
     id="path63" />
  <path
     fill="#000000"
     d="M316.99628 211.65L318.10565 211.55624Q318.23065 212.36874 318.66815 212.775Q319.12128 213.18124 319.7619 213.18124Q320.5119 213.18124 321.04315 212.60312Q321.5744 212.025 321.5744 211.0875Q321.5744 210.18124 321.05878 209.66562Q320.55878 209.13437 319.73065 209.13437Q319.23065 209.13437 318.80878 209.36874Q318.40253 209.60312 318.16815 209.9625L317.18378 209.8375L318.0119 205.43124L322.29315 205.43124L322.29315 206.43124L318.85565 206.43124L318.40253 208.74374Q319.16815 208.19687 320.0119 208.19687Q321.1369 208.19687 321.90253 208.97812Q322.68378 209.75937 322.68378 210.99374Q322.68378 212.15 322.0119 213.00937Q321.18378 214.04062 319.7619 214.04062Q318.59003 214.04062 317.84003 213.38437Q317.10565 212.72812 316.99628 211.65ZM323.99628 209.66562Q323.99628 208.13437 324.30878 207.2125Q324.62128 206.275 325.23065 205.775Q325.85565 205.275 326.79315 205.275Q327.48065 205.275 327.99628 205.55624Q328.52753 205.8375 328.87128 206.36874Q329.21503 206.88437 329.40253 207.63437Q329.59003 208.38437 329.59003 209.66562Q329.59003 211.18124 329.27753 212.10312Q328.98065 213.025 328.35565 213.54062Q327.74628 214.04062 326.79315 214.04062Q325.55878 214.04062 324.84003 213.15Q323.99628 212.0875 323.99628 209.66562ZM325.0744 209.66562Q325.0744 211.775 325.5744 212.47812Q326.0744 213.18124 326.79315 213.18124Q327.52753 213.18124 328.0119 212.47812Q328.5119 211.775 328.5119 209.66562Q328.5119 207.54062 328.0119 206.85312Q327.52753 206.15 326.77753 206.15Q326.05878 206.15 325.62128 206.75937Q325.0744 207.54062 325.0744 209.66562Z"
     fill-rule="nonzero"
     id="path65" />
  <path
     fill="#000000"
     d="M381.39093 207.41562L380.34406 207.49374Q380.20343 206.86874 379.95343 206.5875Q379.51593 206.13437 378.89093 206.13437Q378.39093 206.13437 378.0003 206.41562Q377.51593 206.79062 377.21906 207.49374Q376.9378 208.18124 376.92218 209.4625Q377.29718 208.88437 377.84406 208.60312Q378.40656 208.32187 379.01593 208.32187Q380.0628 208.32187 380.79718 209.10312Q381.54718 209.88437 381.54718 211.10312Q381.54718 211.91562 381.1878 212.61874Q380.84406 213.30624 380.23468 213.68124Q379.6253 214.04062 378.85968 214.04062Q377.53156 214.04062 376.70343 213.07187Q375.8753 212.10312 375.8753 209.88437Q375.8753 207.38437 376.79718 206.25937Q377.59406 205.275 378.95343 205.275Q379.96906 205.275 380.60968 205.85312Q381.26593 206.41562 381.39093 207.41562ZM377.09406 211.11874Q377.09406 211.66562 377.3128 212.16562Q377.54718 212.65 377.95343 212.91562Q378.3753 213.18124 378.84406 213.18124Q379.5003 213.18124 379.98468 212.65Q380.46906 212.10312 380.46906 211.18124Q380.46906 210.29062 379.98468 209.775Q379.51593 209.25937 378.79718 209.25937Q378.07843 209.25937 377.57843 209.775Q377.09406 210.29062 377.09406 211.11874ZM382.92218 209.66562Q382.92218 208.13437 383.23468 207.2125Q383.54718 206.275 384.15656 205.775Q384.78156 205.275 385.71906 205.275Q386.40656 205.275 386.92218 205.55624Q387.45343 205.8375 387.79718 206.36874Q388.14093 206.88437 388.32843 207.63437Q388.51593 208.38437 388.51593 209.66562Q388.51593 211.18124 388.20343 212.10312Q387.90656 213.025 387.28156 213.54062Q386.67218 214.04062 385.71906 214.04062Q384.48468 214.04062 383.76593 213.15Q382.92218 212.0875 382.92218 209.66562ZM384.0003 209.66562Q384.0003 211.775 384.5003 212.47812Q385.0003 213.18124 385.71906 213.18124Q386.45343 213.18124 386.9378 212.47812Q387.4378 211.775 387.4378 209.66562Q387.4378 207.54062 386.9378 206.85312Q386.45343 206.15 385.70343 206.15Q384.98468 206.15 384.54718 206.75937Q384.0003 207.54062 384.0003 209.66562Z"
     fill-rule="nonzero"
     id="path67" />
  <path
     fill="#4285f4"
     d="M141.5 43.833332L147.5 49.833332L141.5 55.833332L135.5 49.833332Z"
     fill-rule="nonzero"
     id="path69" />
  <path
     fill="#1a1a1a"
     d="M156.625 53.833332L156.625 45.239582L157.75 45.239582L157.75 53.833332L156.625 53.833332ZM159.29688 53.833332L159.29688 47.614582L160.23438 47.614582L160.23438 48.489582Q160.92188 47.473957 162.21875 47.473957Q162.78125 47.473957 163.25 47.677082Q163.73438 47.880207 163.96875 48.208332Q164.20312 48.536457 164.29688 48.973957Q164.34375 49.270832 164.34375 50.005207L164.34375 53.833332L163.29688 53.833332L163.29688 50.052082Q163.29688 49.395832 163.17188 49.083332Q163.04688 48.770832 162.73438 48.583332Q162.42188 48.380207 162.0 48.380207Q161.32812 48.380207 160.82812 48.817707Q160.34375 49.239582 160.34375 50.427082L160.34375 53.833332L159.29688 53.833332ZM168.59375 52.895832L168.75 53.817707Q168.29688 53.911457 167.95312 53.911457Q167.375 53.911457 167.0625 53.739582Q166.75 53.552082 166.60938 53.255207Q166.48438 52.958332 166.48438 52.005207L166.48438 48.427082L165.71875 48.427082L165.71875 47.614582L166.48438 47.614582L166.48438 46.067707L167.53125 45.442707L167.53125 47.614582L168.59375 47.614582L168.59375 48.427082L167.53125 48.427082L167.53125 52.067707Q167.53125 52.520832 167.57812 52.645832Q167.64062 52.770832 167.76562 52.848957Q167.89062 52.927082 168.125 52.927082Q168.3125 52.927082 168.59375 52.895832ZM173.54688 51.833332L174.64062 51.958332Q174.39062 52.911457 173.6875 53.442707Q172.98438 53.973957 171.90625 53.973957Q170.54688 53.973957 169.73438 53.130207Q168.9375 52.286457 168.9375 50.770832Q168.9375 49.208332 169.75 48.348957Q170.5625 47.473957 171.84375 47.473957Q173.09375 47.473957 173.875 48.317707Q174.67188 49.161457 174.67188 50.708332Q174.67188 50.802082 174.67188 50.989582L170.03125 50.989582Q170.09375 52.020832 170.60938 52.567707Q171.125 53.098957 171.90625 53.098957Q172.48438 53.098957 172.89062 52.802082Q173.3125 52.489582 173.54688 51.833332ZM170.09375 50.130207L173.5625 50.130207Q173.5 49.333332 173.17188 48.942707Q172.65625 48.333332 171.85938 48.333332Q171.125 48.333332 170.625 48.817707Q170.14062 49.302082 170.09375 50.130207ZM176.26562 53.833332L176.26562 45.239582L177.32812 45.239582L177.32812 53.833332L176.26562 53.833332ZM182.39062 53.833332L182.39062 45.239582L184.10938 45.239582L186.14062 51.317707Q186.42188 52.177082 186.54688 52.598957Q186.6875 52.130207 187.0 51.223957L189.0625 45.239582L190.59375 45.239582L190.59375 53.833332L189.5 53.833332L189.5 46.645832L187.0 53.833332L185.96875 53.833332L183.48438 46.520832L183.48438 53.833332L182.39062 53.833332ZM191.42188 53.833332L191.42188 45.239582L194.67188 45.239582Q195.51562 45.239582 195.96875 45.317707Q196.60938 45.427082 197.03125 45.723957Q197.46875 46.020832 197.71875 46.552082Q197.98438 47.083332 197.98438 47.723957Q197.98438 48.817707 197.28125 49.583332Q196.59375 50.333332 194.76562 50.333332L192.5625 50.333332L192.5625 53.833332L191.42188 53.833332ZM192.5625 49.333332L194.78125 49.333332Q195.89062 49.333332 196.34375 48.927082Q196.8125 48.505207 196.8125 47.755207Q196.8125 47.223957 196.53125 46.848957Q196.26562 46.458332 195.82812 46.333332Q195.53125 46.255207 194.76562 46.255207L192.5625 46.255207L192.5625 49.333332ZM199.625 53.833332L199.625 45.239582L200.75 45.239582L200.75 53.833332L199.625 53.833332Z"
     fill-rule="nonzero"
     id="path71" />
  <path
     fill="#ea4335"
     d="M223.5 43.833332L229.5 49.833332L223.5 55.833332L217.5 49.833332Z"
     fill-rule="nonzero"
     id="path73" />
  <path
     fill="#1a1a1a"
     d="m 238.07812,49.645832 c 0,-1.427083 0.38021,-2.541667 1.14063,-3.34375 0.77083,-0.8125 1.76042,-1.21875 2.96875,-1.21875 0.80208,0 1.52083,0.192708 2.15625,0.578125 0.63542,0.375 1.1198,0.901042 1.45313,1.578125 0.33333,0.677083 0.5,1.447917 0.5,2.3125 0,0.864583 -0.17709,1.640625 -0.53126,2.328125 -0.35416,0.6875 -0.85416,1.208333 -1.5,1.5625 -0.63541,0.354167 -1.32812,0.53125 -2.07812,0.53125 -0.8125,0 -1.53646,-0.192708 -2.17188,-0.578125 -0.63541,-0.395833 -1.11979,-0.927083 -1.45312,-1.59375 -0.32292,-0.677083 -0.48438,-1.395833 -0.48438,-2.15625 z m 1.17188,0.01563 c 0,1.041667 0.27604,1.859375 0.82812,2.453125 0.56251,0.59375 1.26563,0.890625 2.10938,0.890625 0.85417,0 1.55729,-0.296875 2.10938,-0.890625 0.55208,-0.604167 0.82812,-1.463542 0.82812,-2.578125 0,-0.697917 -0.11979,-1.307292 -0.35938,-1.828125 -0.22916,-0.520833 -0.57291,-0.921875 -1.03124,-1.203125 -0.45833,-0.291667 -0.96875,-0.4375 -1.53126,-0.4375 -0.80208,0 -1.49479,0.276042 -2.07812,0.828125 -0.58333,0.552083 -0.875,1.473958 -0.875,2.765625 z m 8.04688,6.5625 V 47.614582 H 248.25 v 0.796875 c 0.22917,-0.3125 0.48437,-0.546875 0.76562,-0.703125 0.29167,-0.15625 0.64063,-0.234375 1.04688,-0.234375 0.53125,0 1,0.135417 1.40625,0.40625 0.40625,0.270833 0.70833,0.65625 0.90625,1.15625 0.20833,0.5 0.3125,1.046875 0.3125,1.640625 0,0.635417 -0.11458,1.208333 -0.34375,1.71875 -0.21875,0.510417 -0.54688,0.901042 -0.98437,1.171875 -0.43751,0.270833 -0.89584,0.40625 -1.375,0.40625 -0.35417,0 -0.67188,-0.07292 -0.95313,-0.21875 -0.28125,-0.15625 -0.51041,-0.34375 -0.6875,-0.5625 v 3.03125 z m 0.95312,-5.46875 c 0,0.802083 0.16146,1.395833 0.48438,1.78125 0.32291,0.375 0.71354,0.5625 1.17187,0.5625 0.46875,0 0.8698,-0.197917 1.20313,-0.59375 0.33333,-0.395833 0.5,-1.010417 0.5,-1.84375 0,-0.791667 -0.16146,-1.380208 -0.48438,-1.765625 -0.32292,-0.395833 -0.71355,-0.59375 -1.17188,-0.59375 -0.44791,0 -0.84375,0.208333 -1.1875,0.625 -0.34375,0.416667 -0.51562,1.026042 -0.51562,1.828125 z m 10.29688,1.078125 1.09374,0.125 c -0.16667,0.635417 -0.48437,1.130208 -0.95312,1.484375 -0.46875,0.354167 -1.0625,0.53125 -1.78125,0.53125 -0.90625,0 -1.6302,-0.28125 -2.17187,-0.84375 -0.53125,-0.5625 -0.79688,-1.348958 -0.79688,-2.359375 0,-1.041667 0.27083,-1.848958 0.8125,-2.421875 0.54167,-0.583333 1.23958,-0.875 2.09375,-0.875 0.83333,0 1.51042,0.28125 2.03125,0.84375 0.53125,0.5625 0.79688,1.359375 0.79688,2.390625 v 0.28125 h -4.64063 c 0.0417,0.6875 0.23438,1.213542 0.57813,1.578125 0.34375,0.354167 0.77604,0.53125 1.29687,0.53125 0.38542,0 0.71354,-0.09896 0.98437,-0.296875 0.28125,-0.208333 0.50001,-0.53125 0.65626,-0.96875 z m -3.45313,-1.703125 h 3.46875 c -0.0417,-0.53125 -0.17187,-0.927083 -0.39062,-1.1875 -0.34375,-0.40625 -0.78125,-0.609375 -1.3125,-0.609375 -0.48959,0 -0.90105,0.161458 -1.23438,0.484375 -0.32292,0.322917 -0.5,0.760417 -0.53125,1.3125 z m 6.20313,3.703125 v -6.21875 h 0.9375 v 0.875 c 0.45833,-0.677083 1.11979,-1.015625 1.98437,-1.015625 0.375,0 0.71875,0.06771 1.03125,0.203125 0.32292,0.135417 0.5625,0.3125 0.71875,0.53125 0.15625,0.21875 0.26562,0.473958 0.32813,0.765625 0.0312,0.197917 0.0469,0.541667 0.0469,1.03125 v 3.828125 h -1.04687 v -3.78125 c 0,-0.4375 -0.0417,-0.760417 -0.125,-0.96875 -0.0833,-0.208333 -0.22917,-0.375 -0.4375,-0.5 -0.20833,-0.135417 -0.45313,-0.203125 -0.73438,-0.203125 -0.44792,0 -0.83855,0.145833 -1.17188,0.4375 -0.32291,0.28125 -0.48437,0.817708 -0.48437,1.609375 v 3.40625 z m 11.09374,0 v -8.59375 h 1.71876 l 2.03124,6.078125 c 0.18751,0.572917 0.32293,1 0.40626,1.28125 0.0937,-0.3125 0.24479,-0.770833 0.45312,-1.375 l 2.0625,-5.984375 h 1.53125 v 8.59375 H 279.5 v -7.1875 l -2.5,7.1875 h -1.03125 l -2.48437,-7.3125 v 7.3125 z m 9.03126,0 v -8.59375 h 3.25 c 0.56249,0 0.99478,0.02604 1.29687,0.07813 0.42709,0.07292 0.78125,0.208333 1.0625,0.40625 0.29167,0.197917 0.52083,0.473958 0.6875,0.828125 0.17709,0.354167 0.26563,0.744792 0.26563,1.171875 0,0.729167 -0.23438,1.348958 -0.70313,1.859375 -0.45833,0.5 -1.29688,0.75 -2.51563,0.75 h -2.20312 v 3.5 z m 1.14062,-4.5 h 2.21875 c 0.73958,0 1.26041,-0.135417 1.5625,-0.40625 0.3125,-0.28125 0.46875,-0.671875 0.46875,-1.171875 0,-0.354167 -0.0937,-0.65625 -0.28125,-0.90625 -0.17709,-0.260417 -0.41146,-0.432292 -0.70313,-0.515625 -0.19791,-0.05208 -0.55208,-0.07813 -1.0625,-0.07813 h -2.20312 z m 7.0625,4.5 v -8.59375 h 1.125 v 8.59375 z"
     fill-rule="nonzero"
     id="path75"
     sodipodi:nodetypes="scscssscsccsscscsccssscccccsscscssccccscssscsssccsscscscscccscccccsccccccscscsccsscscsccccccccccccccccccccscccscsccccscsccsccccccc" />
  <path
     fill="#000000"
     d="M14.44375 30.1L14.44375 17.209375L17.00625 17.209375L20.053125 26.334375Q20.475 27.615625 20.6625 28.240625Q20.88125 27.5375 21.35 26.178125L24.44375 17.209375L26.725 17.209375L26.725 30.1L25.084375 30.1L25.084375 19.31875L21.35 30.1L19.803125 30.1L16.084375 19.13125L16.084375 30.1L14.44375 30.1ZM35.678123 27.1L37.31875 27.303125Q36.928123 28.725 35.88125 29.521875Q34.834373 30.31875 33.209373 30.31875Q31.1625 30.31875 29.959375 29.053125Q28.75625 27.7875 28.75625 25.50625Q28.75625 23.1625 29.959375 21.865625Q31.178125 20.553125 33.115623 20.553125Q34.990623 20.553125 36.178123 21.834375Q37.365623 23.1 37.365623 25.4125Q37.365623 25.553125 37.35 25.834375L30.396875 25.834375Q30.475 27.38125 31.25625 28.19375Q32.053123 29.00625 33.209373 29.00625Q34.084373 29.00625 34.69375 28.553125Q35.31875 28.1 35.678123 27.1ZM30.475 24.5375L35.69375 24.5375Q35.584373 23.365625 35.1 22.771875Q34.334373 21.85 33.13125 21.85Q32.053123 21.85 31.303125 22.584375Q30.56875 23.31875 30.475 24.5375ZM39.2875 30.1L39.2875 20.771875L40.709373 20.771875L40.709373 22.06875Q41.146873 21.396875 41.865623 20.975Q42.6 20.553125 43.5375 20.553125Q44.56875 20.553125 45.225 20.990625Q45.896873 21.4125 46.1625 22.19375Q47.271873 20.553125 49.053123 20.553125Q50.44375 20.553125 51.178123 21.334375Q51.928123 22.1 51.928123 23.69375L51.928123 30.1L50.365623 30.1L50.365623 24.225Q50.365623 23.271875 50.209373 22.85Q50.053123 22.428125 49.646873 22.178125Q49.240623 21.928125 48.69375 21.928125Q47.709373 21.928125 47.053123 22.584375Q46.4125 23.240625 46.4125 24.678125L46.4125 30.1L44.834373 30.1L44.834373 24.0375Q44.834373 22.975 44.44375 22.459375Q44.053123 21.928125 43.178123 21.928125Q42.50625 21.928125 41.94375 22.2875Q41.38125 22.63125 41.115623 23.303125Q40.865623 23.975 40.865623 25.25625L40.865623 30.1L39.2875 30.1ZM52.69375 25.428125Q52.69375 22.834375 54.146873 21.584375Q55.35 20.553125 57.06875 20.553125Q59.00625 20.553125 60.225 21.81875Q61.44375 23.084375 61.44375 25.303125Q61.44375 27.1 60.896873 28.13125Q60.365623 29.1625 59.334373 29.740625Q58.303123 30.31875 57.06875 30.31875Q55.115623 30.31875 53.896873 29.06875Q52.69375 27.803125 52.69375 25.428125ZM54.31875 25.428125Q54.31875 27.225 55.1 28.115625Q55.88125 29.00625 57.06875 29.00625Q58.25625 29.00625 59.0375 28.115625Q59.81875 27.209375 59.81875 25.38125Q59.81875 23.646875 59.021873 22.75625Q58.240623 21.865625 57.06875 21.865625Q55.88125 21.865625 55.1 22.75625Q54.31875 23.646875 54.31875 25.428125ZM63.271873 30.1L63.271873 20.771875L64.69375 20.771875L64.69375 22.178125Q65.24062 21.19375 65.69375 20.88125Q66.1625 20.553125 66.70937 20.553125Q67.52187 20.553125 68.33437 21.06875L67.80312 22.5375Q67.20937 22.19375 66.63125 22.19375Q66.11562 22.19375 65.69375 22.50625Q65.2875 22.81875 65.11562 23.365625Q64.85 24.209375 64.85 25.209375L64.85 30.1L63.271873 30.1ZM69.20937 33.69375L69.0375 32.209373Q69.55312 32.35 69.94375 32.35Q70.475 32.35 70.7875 32.178123Q71.1 32.00625 71.30312 31.678125Q71.45937 31.44375 71.7875 30.50625Q71.83437 30.365625 71.92812 30.115625L68.39687 20.771875L70.1 20.771875L72.0375 26.178125Q72.4125 27.19375 72.70937 28.334375Q72.99062 27.240625 73.36562 26.209375L75.36562 20.771875L76.94375 20.771875L73.39687 30.25625Q72.81875 31.803125 72.50625 32.38125Q72.08437 33.1625 71.5375 33.521873Q70.99062 33.88125 70.24062 33.88125Q69.77187 33.88125 69.20937 33.69375ZM83.2875 33.678123L83.2875 20.771875L84.725 20.771875L84.725 21.975Q85.24062 21.271875 85.88125 20.9125Q86.52187 20.553125 87.42812 20.553125Q88.63125 20.553125 89.5375 21.178125Q90.45937 21.7875 90.92812 22.9125Q91.39687 24.021875 91.39687 25.365625Q91.39687 26.7875 90.88125 27.94375Q90.36562 29.084375 89.38125 29.709375Q88.39687 30.31875 87.31875 30.31875Q86.5375 30.31875 85.89687 29.990625Q85.27187 29.646875 84.86562 29.13125L84.86562 33.678123L83.2875 33.678123ZM84.725 25.490625Q84.725 27.2875 85.44375 28.146875Q86.17812 29.00625 87.20937 29.00625Q88.27187 29.00625 89.02187 28.115625Q89.77187 27.225 89.77187 25.35Q89.77187 23.56875 89.0375 22.678125Q88.30312 21.7875 87.2875 21.7875Q86.27187 21.7875 85.49062 22.740625Q84.725 23.678125 84.725 25.490625ZM99.67812 27.1L101.31875 27.303125Q100.92812 28.725 99.88125 29.521875Q98.83437 30.31875 97.20937 30.31875Q95.1625 30.31875 93.95937 29.053125Q92.75625 27.7875 92.75625 25.50625Q92.75625 23.1625 93.95937 21.865625Q95.17812 20.553125 97.11562 20.553125Q98.99062 20.553125 100.17812 21.834375Q101.36562 23.1 101.36562 25.4125Q101.36562 25.553125 101.35 25.834375L94.39687 25.834375Q94.475 27.38125 95.25625 28.19375Q96.05312 29.00625 97.20937 29.00625Q98.08437 29.00625 98.69375 28.553125Q99.31875 28.1 99.67812 27.1ZM94.475 24.5375L99.69375 24.5375Q99.58437 23.365625 99.1 22.771875Q98.33437 21.85 97.13125 21.85Q96.05312 21.85 95.30312 22.584375Q94.56875 23.31875 94.475 24.5375ZM103.27187 30.1L103.27187 20.771875L104.69375 20.771875L104.69375 22.178125Q105.24062 21.19375 105.69375 20.88125Q106.1625 20.553125 106.70937 20.553125Q107.52187 20.553125 108.33437 21.06875L107.80312 22.5375Q107.20937 22.19375 106.63125 22.19375Q106.11562 22.19375 105.69375 22.50625Q105.2875 22.81875 105.11562 23.365625Q104.85 24.209375 104.85 25.209375L104.85 30.1L103.27187 30.1ZM114.44375 30.1L114.44375 17.209375L117.00625 17.209375L120.05312 26.334375Q120.475 27.615625 120.6625 28.240625Q120.88125 27.5375 121.35 26.178125L124.44375 17.209375L126.725 17.209375L126.725 30.1L125.08437 30.1L125.08437 19.31875L121.35 30.1L119.80312 30.1L116.08437 19.13125L116.08437 30.1L114.44375 30.1ZM129.49063 30.1L129.49063 17.209375L134.35 17.209375Q135.63126 17.209375 136.30313 17.334375Q137.25626 17.490625 137.89688 17.94375Q138.5375 18.38125 138.92813 19.19375Q139.31876 19.990625 139.31876 20.94375Q139.31876 22.584375 138.27188 23.725Q137.225 24.865625 134.50626 24.865625L131.19376 24.865625L131.19376 30.1L129.49063 30.1ZM131.19376 23.334375L134.52188 23.334375Q136.17813 23.334375 136.86563 22.725Q137.56876 22.115625 137.56876 20.990625Q137.56876 20.178125 137.1625 19.615625Q136.75626 19.0375 136.08438 18.85Q135.64688 18.740625 134.49063 18.740625L131.19376 18.740625L131.19376 23.334375ZM141.77188 30.1L141.77188 17.209375L143.49063 17.209375L143.49063 30.1L141.77188 30.1ZM150.52188 30.1L150.52188 17.209375L156.225 17.209375Q157.94376 17.209375 158.83438 17.56875Q159.74063 17.9125 160.27188 18.7875Q160.81876 19.6625 160.81876 20.725Q160.81876 22.1 159.92813 23.0375Q159.0375 23.975 157.19376 24.240625Q157.86563 24.56875 158.20938 24.88125Q158.95938 25.56875 159.63126 26.6L161.86563 30.1L159.725 30.1L158.02188 27.4125Q157.27188 26.25625 156.7875 25.646875Q156.30313 25.021875 155.9125 24.7875Q155.5375 24.5375 155.14688 24.44375Q154.85 24.38125 154.19376 24.38125L152.225 24.38125L152.225 30.1L150.52188 30.1ZM152.225 22.896875L155.88126 22.896875Q157.05313 22.896875 157.70938 22.6625Q158.36563 22.4125 158.70938 21.88125Q159.05313 21.35 159.05313 20.725Q159.05313 19.81875 158.38126 19.225Q157.725 18.63125 156.30313 18.63125L152.225 18.63125L152.225 22.896875ZM169.38126 28.94375Q168.50626 29.69375 167.67813 30.00625Q166.86563 30.31875 165.94376 30.31875Q164.39688 30.31875 163.56876 29.56875Q162.75626 28.803125 162.75626 27.63125Q162.75626 26.959375 163.06876 26.396875Q163.38126 25.81875 163.88126 25.475Q164.38126 25.13125 165.02188 24.959375Q165.49063 24.834375 166.42813 24.725Q168.33438 24.490625 169.24063 24.178125Q169.25626 23.85 169.25626 23.75625Q169.25626 22.803125 168.80313 22.396875Q168.19376 21.865625 167.00626 21.865625Q165.88126 21.865625 165.35 22.25625Q164.81876 22.646875 164.56876 23.646875L163.02188 23.428125Q163.24063 22.428125 163.70938 21.81875Q164.19376 21.209375 165.1 20.88125Q166.02188 20.553125 167.24063 20.553125Q168.42813 20.553125 169.17813 20.834375Q169.92813 21.115625 170.27188 21.553125Q170.63126 21.975 170.77188 22.615625Q170.85 23.021875 170.85 24.084375L170.85 26.19375Q170.85 28.396875 170.94376 28.990625Q171.05313 29.56875 171.35 30.1L169.69376 30.1Q169.44376 29.6 169.38126 28.94375ZM169.24063 25.4125Q168.38126 25.771875 166.6625 26.00625Q165.69376 26.146875 165.2875 26.334375Q164.88126 26.50625 164.6625 26.85Q164.44376 27.178125 164.44376 27.6Q164.44376 28.225 164.9125 28.646875Q165.39688 29.06875 166.31876 29.06875Q167.24063 29.06875 167.94376 28.678125Q168.6625 28.271875 168.99063 27.584375Q169.24063 27.0375 169.24063 25.990625L169.24063 25.4125ZM173.2875 30.1L173.2875 20.771875L174.70938 20.771875L174.70938 22.1Q175.74063 20.553125 177.67813 20.553125Q178.52188 20.553125 179.225 20.865625Q179.94376 21.1625 180.2875 21.6625Q180.64688 22.146875 180.7875 22.81875Q180.86563 23.25625 180.86563 24.365625L180.86563 30.1L179.2875 30.1L179.2875 24.428125Q179.2875 23.459375 179.1 22.975Q178.92813 22.490625 178.44376 22.209375Q177.975 21.928125 177.35 21.928125Q176.33438 21.928125 175.6 22.56875Q174.86563 23.209375 174.86563 25.00625L174.86563 30.1L173.2875 30.1ZM183.30313 30.1L183.30313 17.209375L184.88126 17.209375L184.88126 24.56875L188.61563 20.771875L190.6625 20.771875L187.1 24.225L191.0375 30.1L189.08438 30.1L185.99063 25.334375L184.88126 26.396875L184.88126 30.1L183.30313 30.1ZM196.1 26.06875L196.1 24.803125L214.1 24.803125L214.1 26.06875L196.1 26.06875ZM220.44376 30.1L220.44376 17.209375L223.00626 17.209375L226.05313 26.334375Q226.475 27.615625 226.6625 28.240625Q226.88126 27.5375 227.35 26.178125L230.44376 17.209375L232.725 17.209375L232.725 30.1L231.08438 30.1L231.08438 19.31875L227.35 30.1L225.80313 30.1L222.08438 19.13125L222.08438 30.1L220.44376 30.1ZM235.49063 30.1L235.49063 17.209375L240.35 17.209375Q241.63126 17.209375 242.30313 17.334375Q243.25626 17.490625 243.89688 17.94375Q244.5375 18.38125 244.92813 19.19375Q245.31876 19.990625 245.31876 20.94375Q245.31876 22.584375 244.27188 23.725Q243.225 24.865625 240.50626 24.865625L237.19376 24.865625L237.19376 30.1L235.49063 30.1ZM237.19376 23.334375L240.52188 23.334375Q242.17813 23.334375 242.86563 22.725Q243.56876 22.115625 243.56876 20.990625Q243.56876 20.178125 243.1625 19.615625Q242.75626 19.0375 242.08438 18.85Q241.64688 18.740625 240.49063 18.740625L237.19376 18.740625L237.19376 23.334375ZM247.77188 30.1L247.77188 17.209375L249.49063 17.209375L249.49063 30.1L247.77188 30.1ZM256.77188 30.1L256.77188 17.209375L258.49063 17.209375L258.49063 30.1L256.77188 30.1ZM260.2875 30.1L260.2875 20.771875L261.70938 20.771875L261.70938 22.06875Q262.14688 21.396875 262.86563 20.975Q263.6 20.553125 264.5375 20.553125Q265.56876 20.553125 266.225 20.990625Q266.89688 21.4125 267.1625 22.19375Q268.27188 20.553125 270.05313 20.553125Q271.44376 20.553125 272.17813 21.334375Q272.92813 22.1 272.92813 23.69375L272.92813 30.1L271.36563 30.1L271.36563 24.225Q271.36563 23.271875 271.20938 22.85Q271.05313 22.428125 270.64688 22.178125Q270.24063 21.928125 269.69376 21.928125Q268.70938 21.928125 268.05313 22.584375Q267.4125 23.240625 267.4125 24.678125L267.4125 30.1L265.83438 30.1L265.83438 24.0375Q265.83438 22.975 265.44376 22.459375Q265.05313 21.928125 264.17813 21.928125Q263.50626 21.928125 262.94376 22.2875Q262.38126 22.63125 262.11563 23.303125Q261.86563 23.975 261.86563 25.25625L261.86563 30.1L260.2875 30.1ZM274.2875 33.678123L274.2875 20.771875L275.725 20.771875L275.725 21.975Q276.24063 21.271875 276.88126 20.9125Q277.52188 20.553125 278.42813 20.553125Q279.63126 20.553125 280.5375 21.178125Q281.45938 21.7875 281.92813 22.9125Q282.39688 24.021875 282.39688 25.365625Q282.39688 26.7875 281.88126 27.94375Q281.36563 29.084375 280.38126 29.709375Q279.39688 30.31875 278.31876 30.31875Q277.5375 30.31875 276.89688 29.990625Q276.27188 29.646875 275.86563 29.13125L275.86563 33.678123L274.2875 33.678123ZM275.725 25.490625Q275.725 27.2875 276.44376 28.146875Q277.17813 29.00625 278.20938 29.00625Q279.27188 29.00625 280.02188 28.115625Q280.77188 27.225 280.77188 25.35Q280.77188 23.56875 280.0375 22.678125Q279.30313 21.7875 278.2875 21.7875Q277.27188 21.7875 276.49063 22.740625Q275.725 23.678125 275.725 25.490625ZM284.25626 30.1L284.25626 17.209375L285.83438 17.209375L285.83438 30.1L284.25626 30.1ZM294.67813 27.1L296.31876 27.303125Q295.92813 28.725 294.88126 29.521875Q293.83438 30.31875 292.20938 30.31875Q290.1625 30.31875 288.95938 29.053125Q287.75626 27.7875 287.75626 25.50625Q287.75626 23.1625 288.95938 21.865625Q290.17813 20.553125 292.11563 20.553125Q293.99063 20.553125 295.17813 21.834375Q296.36563 23.1 296.36563 25.4125Q296.36563 25.553125 296.35 25.834375L289.39688 25.834375Q289.475 27.38125 290.25626 28.19375Q291.05313 29.00625 292.20938 29.00625Q293.08438 29.00625 293.69376 28.553125Q294.31876 28.1 294.67813 27.1ZM289.475 24.5375L294.69376 24.5375Q294.58438 23.365625 294.1 22.771875Q293.33438 21.85 292.13126 21.85Q291.05313 21.85 290.30313 22.584375Q289.56876 23.31875 289.475 24.5375ZM298.2875 30.1L298.2875 20.771875L299.70938 20.771875L299.70938 22.06875Q300.14688 21.396875 300.86563 20.975Q301.6 20.553125 302.5375 20.553125Q303.56876 20.553125 304.225 20.990625Q304.89688 21.4125 305.1625 22.19375Q306.27188 20.553125 308.05313 20.553125Q309.44376 20.553125 310.17813 21.334375Q310.92813 22.1 310.92813 23.69375L310.92813 30.1L309.36563 30.1L309.36563 24.225Q309.36563 23.271875 309.20938 22.85Q309.05313 22.428125 308.64688 22.178125Q308.24063 21.928125 307.69376 21.928125Q306.70938 21.928125 306.05313 22.584375Q305.4125 23.240625 305.4125 24.678125L305.4125 30.1L303.83438 30.1L303.83438 24.0375Q303.83438 22.975 303.44376 22.459375Q303.05313 21.928125 302.17813 21.928125Q301.50626 21.928125 300.94376 22.2875Q300.38126 22.63125 300.11563 23.303125Q299.86563 23.975 299.86563 25.25625L299.86563 30.1L298.2875 30.1ZM318.67813 27.1L320.31876 27.303125Q319.92813 28.725 318.88126 29.521875Q317.83438 30.31875 316.20938 30.31875Q314.1625 30.31875 312.95938 29.053125Q311.75626 27.7875 311.75626 25.50625Q311.75626 23.1625 312.95938 21.865625Q314.17813 20.553125 316.11563 20.553125Q317.99063 20.553125 319.17813 21.834375Q320.36563 23.1 320.36563 25.4125Q320.36563 25.553125 320.35 25.834375L313.39688 25.834375Q313.475 27.38125 314.25626 28.19375Q315.05313 29.00625 316.20938 29.00625Q317.08438 29.00625 317.69376 28.553125Q318.31876 28.1 318.67813 27.1ZM313.475 24.5375L318.69376 24.5375Q318.58438 23.365625 318.1 22.771875Q317.33438 21.85 316.13126 21.85Q315.05313 21.85 314.30313 22.584375Q313.56876 23.31875 313.475 24.5375ZM322.2875 30.1L322.2875 20.771875L323.70938 20.771875L323.70938 22.1Q324.74063 20.553125 326.67813 20.553125Q327.52188 20.553125 328.225 20.865625Q328.94376 21.1625 329.2875 21.6625Q329.64688 22.146875 329.7875 22.81875Q329.86563 23.25625 329.86563 24.365625L329.86563 30.1L328.2875 30.1L328.2875 24.428125Q328.2875 23.459375 328.1 22.975Q327.92813 22.490625 327.44376 22.209375Q326.975 21.928125 326.35 21.928125Q325.33438 21.928125 324.6 22.56875Q323.86563 23.209375 323.86563 25.00625L323.86563 30.1L322.2875 30.1ZM335.74063 28.678125L335.975 30.084375Q335.30313 30.225 334.77188 30.225Q333.9125 30.225 333.42813 29.959375Q332.95938 29.678125 332.77188 29.240625Q332.58438 28.7875 332.58438 27.365625L332.58438 21.990625L331.4125 21.990625L331.4125 20.771875L332.58438 20.771875L332.58438 18.459375L334.14688 17.50625L334.14688 20.771875L335.74063 20.771875L335.74063 21.990625L334.14688 21.990625L334.14688 27.459375Q334.14688 28.13125 334.225 28.334375Q334.31876 28.521875 334.50626 28.63125Q334.69376 28.740625 335.05313 28.740625Q335.30313 28.740625 335.74063 28.678125ZM343.38126 28.94375Q342.50626 29.69375 341.67813 30.00625Q340.86563 30.31875 339.94376 30.31875Q338.39688 30.31875 337.56876 29.56875Q336.75626 28.803125 336.75626 27.63125Q336.75626 26.959375 337.06876 26.396875Q337.38126 25.81875 337.88126 25.475Q338.38126 25.13125 339.02188 24.959375Q339.49063 24.834375 340.42813 24.725Q342.33438 24.490625 343.24063 24.178125Q343.25626 23.85 343.25626 23.75625Q343.25626 22.803125 342.80313 22.396875Q342.19376 21.865625 341.00626 21.865625Q339.88126 21.865625 339.35 22.25625Q338.81876 22.646875 338.56876 23.646875L337.02188 23.428125Q337.24063 22.428125 337.70938 21.81875Q338.19376 21.209375 339.1 20.88125Q340.02188 20.553125 341.24063 20.553125Q342.42813 20.553125 343.17813 20.834375Q343.92813 21.115625 344.27188 21.553125Q344.63126 21.975 344.77188 22.615625Q344.85 23.021875 344.85 24.084375L344.85 26.19375Q344.85 28.396875 344.94376 28.990625Q345.05313 29.56875 345.35 30.1L343.69376 30.1Q343.44376 29.6 343.38126 28.94375ZM343.24063 25.4125Q342.38126 25.771875 340.6625 26.00625Q339.69376 26.146875 339.2875 26.334375Q338.88126 26.50625 338.6625 26.85Q338.44376 27.178125 338.44376 27.6Q338.44376 28.225 338.9125 28.646875Q339.39688 29.06875 340.31876 29.06875Q341.24063 29.06875 341.94376 28.678125Q342.6625 28.271875 342.99063 27.584375Q343.24063 27.0375 343.24063 25.990625L343.24063 25.4125ZM350.74063 28.678125L350.975 30.084375Q350.30313 30.225 349.77188 30.225Q348.9125 30.225 348.42813 29.959375Q347.95938 29.678125 347.77188 29.240625Q347.58438 28.7875 347.58438 27.365625L347.58438 21.990625L346.4125 21.990625L346.4125 20.771875L347.58438 20.771875L347.58438 18.459375L349.14688 17.50625L349.14688 20.771875L350.74063 20.771875L350.74063 21.990625L349.14688 21.990625L349.14688 27.459375Q349.14688 28.13125 349.225 28.334375Q349.31876 28.521875 349.50626 28.63125Q349.69376 28.740625 350.05313 28.740625Q350.30313 28.740625 350.74063 28.678125ZM352.30313 19.0375L352.30313 17.209375L353.88126 17.209375L353.88126 19.0375L352.30313 19.0375ZM352.30313 30.1L352.30313 20.771875L353.88126 20.771875L353.88126 30.1L352.30313 30.1ZM355.69376 25.428125Q355.69376 22.834375 357.14688 21.584375Q358.35 20.553125 360.06876 20.553125Q362.00626 20.553125 363.225 21.81875Q364.44376 23.084375 364.44376 25.303125Q364.44376 27.1 363.89688 28.13125Q363.36563 29.1625 362.33438 29.740625Q361.30313 30.31875 360.06876 30.31875Q358.11563 30.31875 356.89688 29.06875Q355.69376 27.803125 355.69376 25.428125ZM357.31876 25.428125Q357.31876 27.225 358.1 28.115625Q358.88126 29.00625 360.06876 29.00625Q361.25626 29.00625 362.0375 28.115625Q362.81876 27.209375 362.81876 25.38125Q362.81876 23.646875 362.02188 22.75625Q361.24063 21.865625 360.06876 21.865625Q358.88126 21.865625 358.1 22.75625Q357.31876 23.646875 357.31876 25.428125ZM366.2875 30.1L366.2875 20.771875L367.70938 20.771875L367.70938 22.1Q368.74063 20.553125 370.67813 20.553125Q371.52188 20.553125 372.225 20.865625Q372.94376 21.1625 373.2875 21.6625Q373.64688 22.146875 373.7875 22.81875Q373.86563 23.25625 373.86563 24.365625L373.86563 30.1L372.2875 30.1L372.2875 24.428125Q372.2875 23.459375 372.1 22.975Q371.92813 22.490625 371.44376 22.209375Q370.975 21.928125 370.35 21.928125Q369.33438 21.928125 368.6 22.56875Q367.86563 23.209375 367.86563 25.00625L367.86563 30.1L366.2875 30.1ZM375.64688 27.31875L377.225 27.06875Q377.35 28.00625 377.94376 28.50625Q378.55313 29.00625 379.63126 29.00625Q380.725 29.00625 381.25626 28.56875Q381.7875 28.115625 381.7875 27.521875Q381.7875 26.990625 381.31876 26.678125Q380.99063 26.475 379.69376 26.146875Q377.95938 25.709375 377.2875 25.396875Q376.61563 25.06875 376.25626 24.50625Q375.9125 23.928125 375.9125 23.240625Q375.9125 22.615625 376.19376 22.084375Q376.49063 21.553125 376.975 21.209375Q377.35 20.928125 377.99063 20.740625Q378.63126 20.553125 379.35 20.553125Q380.45938 20.553125 381.2875 20.88125Q382.11563 21.19375 382.50626 21.740625Q382.9125 22.271875 383.05313 23.178125L381.50626 23.38125Q381.39688 22.6625 380.89688 22.25625Q380.39688 21.85 379.475 21.85Q378.38126 21.85 377.9125 22.209375Q377.44376 22.56875 377.44376 23.053125Q377.44376 23.365625 377.64688 23.615625Q377.83438 23.865625 378.24063 24.0375Q378.49063 24.115625 379.64688 24.44375Q381.31876 24.88125 381.975 25.178125Q382.64688 25.459375 383.02188 26.00625Q383.4125 26.553125 383.4125 27.35Q383.4125 28.146875 382.94376 28.85Q382.49063 29.553125 381.61563 29.94375Q380.74063 30.31875 379.64688 30.31875Q377.81876 30.31875 376.86563 29.56875Q375.9125 28.803125 375.64688 27.31875Z"
     fill-rule="nonzero"
     id="path77" />
</svg>
